umls:C3150207	omim:612692
umls:C0020476	mesh:D006951
umls:C0002736	mesh:D000690
umls:C0010068	mesh:D003327
umls:C1837739	omim:608622
umls:C1852581	omim:121201
umls:C0270726	mesh:D038261
umls:C1864669	omim:610127
umls:C1854154	omim:605588
umls:C1855739	omim:243000
umls:C0220766	omim:300200
umls:C0080178	mesh:D016135
umls:C1854369	omim:605361
umls:C0796085	omim:302350
umls:C0016065	mesh:D005359
umls:C0042345	mesh:D014648
umls:C0268540	omim:238970
umls:C2673257	omim:611726
umls:C0004352	mesh:D001321
umls:C0018824	mesh:D006349
umls:C2676790	omim:612284
umls:C1864720	omim:610093
umls:C1840548	omim:608579
umls:C1836448	omim:609284
umls:C1858593	omim:604286
umls:C0040336	mesh:D014029
umls:C0037286	mesh:D012878
umls:C1861863	omim:115196
umls:C0005944	mesh:D001851
umls:C0000821	mesh:D000033
umls:C0017178	mesh:D005767
umls:C1291490	omim:601492
umls:C1859592	omim:209500
umls:C0015558	mesh:D005185
umls:C1850569	omim:256030
umls:C1843463	omim:607602
umls:C1862839	omim:107250
umls:C0033835	mesh:D011556
umls:C0265223	omim:216550
umls:C1847024	omim:606952
umls:C0031069	mesh:D010505
umls:C0034124	mesh:D011681
umls:C1691228	mesh:D052177
umls:C1279481	mesh:D053632
umls:C0014553	mesh:D004832
umls:C0220685	omim:200610
umls:C0175692	omim:243800
umls:C2677879	omim:300758
umls:C2677506	omim:612098
umls:C1832648	omim:146200
umls:C0001126	mesh:D000141
umls:C2676721	omim:612348
umls:C0019880	mesh:D006712
umls:C0549150	omim:612318
umls:C0162309	mesh:D000326
umls:C1832708	omim:610017
umls:C0023801	mesh:D008068
umls:C2749861	omim:612075
umls:C0018566	mesh:D006228
umls:C0026707	mesh:D009085
umls:C0034885	mesh:D012004
umls:C1840402	omim:145000
umls:C0032019	mesh:D010911
umls:C0265559	omim:200500
umls:C1832526	omim:601286
umls:C0029396	mesh:D009999
umls:C1858915	omim:603965
umls:C0406778	omim:125595
umls:C0027932	mesh:D009497
umls:C2608087	omim:608634
umls:C2751544	omim:605462
umls:C0398777	omim:609814
umls:C0020597	mesh:D006995
umls:C2678223	omim:300123
umls:C0268318	omim:147480
umls:C0268155	omim:230200
umls:C0520459	mesh:D020345
umls:C0432215	omim:208230
umls:C1840299	omim:146520
umls:C1970253	omim:610992
umls:C0027341	mesh:D009261
umls:C0268238	omim:275630
umls:C1833508	omim:255110
umls:C1834304	omim:162100
umls:C0272236	mesh:D053306
umls:C1850303	omim:258450
umls:C0079584	mesh:D016112
umls:C0042842	mesh:D014802
umls:C1260873	omim:109730
umls:C0013336	mesh:D004392
umls:C1867300	omim:180104
umls:C1845102	omim:300607
umls:C1834752	omim:607948
umls:C1868675	omim:600116
umls:C0025267	mesh:D018761
umls:C1849779	omim:262650
umls:C0432273	omim:144750
umls:C1858763	omim:604145
umls:C0751587	mesh:D046589
umls:C1867801	omim:176305
umls:C1969809	omim:611283
umls:C0034091	mesh:D011668
umls:C1838244	omim:600334
umls:C1832736	omim:601110
umls:C0018418	mesh:D006177
umls:C0334463	mesh:D051677
umls:C2751325	omim:607080
umls:C1865044	omim:609597
umls:C1847555	omim:606762
umls:C1836383	omim:609307
umls:C0878677	mesh:D052120
umls:C0751336	mesh:D049310
umls:C1848651	omim:276820
umls:C0020497	mesh:D006958
umls:C2350233	mesh:D054882
umls:C1849409	omim:267750
umls:C0206655	mesh:D018232
umls:C0026654	mesh:D009072
umls:C1850343	omim:257300
umls:C1853153	omim:610688
umls:C0271567	omim:173100
umls:C1846006	omim:300291
umls:C2676772	omim:612290
umls:C1837091	omim:608931
umls:C1836607	omim:609200
umls:C1836122	omim:609464
umls:C0029928	mesh:D010049
umls:C0013182	mesh:D004342
umls:C1855553	omim:245349
umls:C0035242	mesh:D012140
umls:C0029454	mesh:D010022
umls:C1838163	omim:600376
umls:C0020455	mesh:D006942
umls:C0014859	mesh:D004938
umls:C0017495	mesh:D016098
umls:C0035228	mesh:D012130
umls:C0333641	mesh:D001284
umls:C0152427	mesh:D017689
umls:C2675517	omim:612556
umls:C1836460	omim:609283
umls:C1859648	omim:208550
umls:C0796074	omim:304700
umls:C0035455	mesh:D012220
umls:C1970479	omim:610896
umls:C0342783	omim:201470
umls:C1866079	omim:601884
umls:C2678474	omim:611880
umls:C1866785	omim:182920
umls:C1835698	omim:148190
umls:C1832243	omim:601494
umls:C1852510	omim:122880
umls:C1858278	omim:604563
umls:C1843851	omim:607459
umls:C2678027	omim:300717
umls:C0037928	mesh:D013118
umls:C0398623	mesh:D019851
umls:C0006111	mesh:D001927
umls:C1865322	omim:602481
umls:C0042510	mesh:D014693
umls:C0393808	omim:302800
umls:C2676231	omim:612447
umls:C0079773	mesh:D016410
umls:C1846862	omim:607060
umls:C1862103	omim:113100
umls:C0013069	mesh:D004310
umls:C0265252	mesh:D038921
umls:C1853892	omim:605850
umls:C0030922	mesh:D010438
umls:C1846357	omim:607361
umls:C0040046	mesh:D013924
umls:C1835922	omim:609924
umls:C0432201	omim:112310
umls:C1853136	omim:610717
umls:C1832976	omim:600977
umls:C0795996	omim:271930
umls:C1845168	omim:300554
umls:C1857572	omim:217400
umls:C1863534	omim:603786
umls:C0010481	mesh:D003480
umls:C0001768	mesh:D000361
umls:C1845151	omim:300559
umls:C0238463	omim:188550
umls:C2700438	omim:612371
umls:C0162283	mesh:D018500
umls:C0085132	mesh:D016538
umls:C1855456	omim:248310
umls:C0008350	mesh:D002769
umls:C1866855	omim:182601
umls:C1837342	omim:608807
umls:C0079301	mesh:D016109
umls:C1861556	omim:215600
umls:C2678485	omim:611818
umls:C2676254	omim:612437
umls:C0079153	mesh:D017488
umls:C1846843	omim:607078
umls:C0026846	mesh:D009133
umls:C0039585	mesh:D013734
umls:C1864567	omim:610623
umls:C1848534	omim:277450
umls:C0010340	mesh:D016638
umls:C1836724	omim:609141
umls:C1835819	omim:610829
umls:C1853736	omim:606056
umls:C0030581	mesh:D010307
umls:C0432194	omim:269250
umls:C0241910	mesh:D019693
umls:C0268140	omim:278760
umls:C0001973	mesh:D000437
umls:C2675471	omim:612623
umls:C0013604	mesh:D004487
umls:C1858679	omim:604219
umls:C1854594	omim:605192
umls:C0011633	mesh:D003882
umls:C1843075	omim:607791
umls:C0162538	mesh:D017098
umls:C3149378	omim:607594
umls:C0026850	mesh:D009136
umls:C1843139	omim:607748
umls:C1835044	omim:155601
umls:C0340274	mesh:D046110
umls:C0008487	mesh:D002817
umls:C0009324	mesh:D003093
umls:C1857682	omim:610678
umls:C1536500	omim:203750
umls:C1306214	mesh:D049913
umls:C0265234	mesh:D019280
umls:C0020951	mesh:D007105
umls:C0035304	mesh:D012162
umls:C0017205	mesh:D005776
umls:C0013403	mesh:D004416
umls:C1864851	omim:610475
umls:C1865869	omim:602093
umls:C1858673	omim:604403
umls:C2749942	omim:611136
umls:C1835887	omim:610374
umls:C0015530	mesh:D005177
umls:C0040588	mesh:D014138
umls:C0002871	mesh:D000740
umls:C0079731	mesh:D016393
umls:C1835849	omim:610768
umls:C0271568	mesh:D046150
umls:C0030421	mesh:D010235
umls:C0399376	omim:130900
umls:C2673648	omim:611718
umls:C1852093	omim:125850
umls:C0432283	omim:166250
umls:C0220663	omim:110100
umls:C1845861	omim:300354
umls:C1832475	omim:601317
umls:C0026986	mesh:D009190
umls:C2931019	omim:183600
umls:C0042138	mesh:D014594
umls:C0025500	mesh:D008654
umls:C1859690	omim:208250
umls:C0040156	mesh:D013971
umls:C1858424	omim:604377
umls:C1838657	omim:600081
umls:C0025160	mesh:D008531
umls:C1865370	omim:602450
umls:C0013312	mesh:D004387
umls:C0026640	mesh:D009062
umls:C0950122	mesh:D052159
umls:C0023374	mesh:D007926
umls:C1837454	omim:608768
umls:C0007099	mesh:D002278
umls:C1868674	omim:308240
umls:C0035412	mesh:D012208
umls:C1847823	omim:606595
umls:C0398641	omim:153650
umls:C1283620	omim:222900
umls:C1851945	omim:128100
umls:C0085298	mesh:D016757
umls:C1845540	omim:300425
umls:C0018674	mesh:D006259
umls:C2675179	omim:612718
umls:C0031485	mesh:D010661
umls:C0008370	mesh:D002779
umls:C1861185	omim:188000
umls:C0021655	mesh:D007333
umls:C0268450	mesh:D053579
umls:C0002891	mesh:D000751
umls:C1852282	omim:124900
umls:C1832386	omim:601410
umls:C0037769	mesh:D013036
umls:C0020550	mesh:D006980
umls:C0342639	omim:143870
umls:C1859726	omim:208050
umls:C1849387	omim:268150
umls:C1851347	omim:134610
umls:C1835865	omim:610381
umls:C1851573	omim:131705
umls:C2677608	omim:612004
umls:C2239176	mesh:D006528
umls:C0034139	mesh:D011686
umls:C1853441	omim:606346
umls:C1853354	omim:609796
umls:C1835888	omim:610370
umls:C0265345	omim:153400
umls:C0004134	mesh:D001259
umls:C1864690	omim:610125
umls:C0268581	mesh:D028922
umls:C0085129	mesh:D016535
umls:C1531773	omim:176450
umls:C0001430	mesh:D000236
umls:C1855840	omim:241410
umls:C0553580	mesh:D012512
umls:C1843355	omim:607626
umls:C0268117	omim:300323
umls:C0268351	omim:219100
umls:C0026769	mesh:D009103
umls:C0162635	mesh:D017204
umls:C1869122	omim:130070
umls:C1843183	omim:607706
umls:C1853162	omim:610682
umls:C1864040	omim:603285
umls:C0023798	mesh:D008067
umls:C1845294	omim:300510
umls:C1858160	omim:604757
umls:C1843898	omim:607447
umls:C0011849	mesh:D003920
umls:C0005695	mesh:D001749
umls:C0027122	mesh:D009221
umls:C0035220	mesh:D012127
umls:C1843244	omim:607681
umls:C0043251	mesh:D014947
umls:C2940786	mesh:D018382
umls:C1970841	omim:300659
umls:C2931213	omim:605472
umls:C1865349	omim:602473
umls:C0018609	mesh:D006250
umls:C0342789	omim:255120
umls:C1852222	omim:125350
umls:C0265246	omim:107480
umls:C0004096	mesh:D001249
umls:C1835813	omim:610842
umls:C0010691	mesh:D003555
umls:C0268412	omim:241500
umls:C0403399	omim:256300
umls:C0349464	mesh:D020915
umls:C0685838	omim:233300
umls:C0038356	mesh:D013274
umls:C0014072	mesh:D004681
umls:C0238261	omim:153200
umls:C0406709	omim:106260
umls:C1861514	omim:119900
umls:C0220776	omim:313400
umls:C0039685	mesh:D013771
umls:C0027708	mesh:D009396
umls:C0039231	mesh:D013610
umls:C1969062	omim:611544
umls:C0033975	mesh:D011618
umls:C0020635	mesh:D007018
umls:C1865020	omim:609620
umls:C0023055	mesh:D007822
umls:C1854299	omim:605407
umls:C1842073	omim:608415
umls:C1835672	omim:148350
umls:C1835661	omim:148700
umls:C0020481	mesh:D006954
umls:C0021051	mesh:D007153
umls:C1836155	omim:609452
umls:C1864902	omim:610021
umls:C1861975	omim:114030
umls:C1864436	omim:602849
umls:C0017921	mesh:D006009
umls:C1837915	omim:263400
umls:C0026010	mesh:D008850
umls:C0022360	mesh:D007569
umls:C2675904	omim:612469
umls:C1842237	omim:608323
umls:C1836522	omim:609242
umls:C0151526	mesh:D047928
umls:C0020564	mesh:D006984
umls:C1275114	omim:604129
umls:C1843028	omim:607821
umls:C0029124	mesh:D009896
umls:C2678475	omim:611879
umls:C1846284	omim:607398
umls:C0014522	mesh:D004819
umls:C0011057	mesh:D003639
umls:C1853118	omim:610738
umls:C1969093	omim:611497
umls:C1845407	omim:300476
umls:C1856251	omim:233700
umls:C0796275	omim:300615
umls:C0024141	mesh:D008180
umls:C0015624	mesh:D005198
umls:C1861862	omim:115197
umls:C0011875	mesh:D003925
umls:C1854065	omim:605670
umls:C1846582	omim:607236
umls:C0282513	mesh:D018888
umls:C1866994	omim:181450
umls:C1969652	omim:611377
umls:C0016751	mesh:D005633
umls:C0005818	mesh:D001791
umls:C1845517	omim:300438
umls:C0262584	mesh:D018288
umls:C0339537	omim:303700
umls:C1857144	omim:224230
umls:C0007302	mesh:D002357
umls:C0022739	mesh:D007715
umls:C1862414	omim:108721
umls:C1846790	omim:609583
umls:C0005779	mesh:D001778
umls:C0162429	mesh:D044342
umls:C1837023	omim:608983
umls:C1843687	omim:608583
umls:C0268483	mesh:D020176
umls:C1853230	omim:610256
umls:C0017612	mesh:D005902
umls:C2678034	omim:300716
umls:C0025362	mesh:D008607
umls:C0398595	omim:254600
umls:C0027765	mesh:D009422
umls:C1838702	omim:600059
umls:C1842031	omim:137600
umls:C1849193	omim:270300
umls:C0011581	mesh:D003866
umls:C0265325	omim:276300
umls:C1849508	omim:266100
umls:C1337030	omim:278700
umls:C1851526	omim:132700
umls:C2677792	omim:611943
umls:C1858302	omim:604536
umls:C0158667	omim:180920
umls:C0028754	mesh:D009765
umls:C2676510	omim:612350
umls:C0020179	mesh:D006816
umls:C1845202	omim:300539
umls:C1838539	omim:108770
umls:C1833373	omim:600737
umls:C0268353	omim:304150
umls:C1849453	omim:266280
umls:C2677099	omim:612247
umls:C0878676	omim:261640
umls:C0521723	omim:121820
umls:C0340978	omim:155100
umls:C0085215	mesh:D016649
umls:C0010692	mesh:D003556
umls:C0007134	mesh:D002292
umls:C1840061	omim:147891
umls:C0022595	mesh:D007644
umls:C1857828	omim:610141
umls:C0036330	mesh:D012555
umls:C0022603	mesh:D017492
umls:C0008924	mesh:D002971
umls:C0276226	mesh:D020803
umls:C0152244	mesh:D017824
umls:C0086533	mesh:D018230
umls:C2677132	omim:612225
umls:C1854273	omim:605432
umls:C2675227	omim:612651
umls:C0040411	mesh:D014062
umls:C0236792	mesh:D020817
umls:C0024748	mesh:D008363
umls:C1862939	omim:105400
umls:C1839566	omim:311070
umls:C1970236	omim:611040
umls:C0007570	mesh:D002446
umls:C0342474	omim:201710
umls:C1839503	omim:311300
umls:C0025269	mesh:D018814
umls:C0950123	mesh:D030342
umls:C0409959	mesh:D020370
umls:C0033375	mesh:D015175
umls:C1857413	omim:219750
umls:C0238288	mesh:D020391
umls:C0003860	mesh:D001167
umls:C1866078	omim:601885
umls:C1852700	omim:120790
umls:C0013581	mesh:D004479
umls:C0268296	omim:264300
umls:C0221757	mesh:D019896
umls:C2751492	omim:105210
umls:C0035372	mesh:D015518
umls:C1859593	omim:209300
umls:C1969052	omim:611561
umls:C3151568	omim:256370
umls:C0004775	mesh:D001477
umls:C1839909	omim:304100
umls:C1846648	omim:607196
umls:C1970161	omim:611134
umls:C1970203	omim:611087
umls:C1832942	omim:175050
umls:C0398746	omim:266130
umls:C0342770	omim:606812
umls:C1846979	omim:606996
umls:C1970198	omim:611092
umls:C1848947	omim:272430
umls:C0010051	mesh:D003323
umls:C0342287	omim:249270
umls:C0795953	omim:303350
umls:C1853202	omim:610297
umls:C1855731	omim:243300
umls:C1833245	omim:600852
umls:C0015306	mesh:D005097
umls:C1969086	omim:611521
umls:C1854416	omim:605309
umls:C0270972	mesh:D003635
umls:C0265279	omim:156550
umls:C0018203	mesh:D006105
umls:C0268350	omim:123700
umls:C0947622	mesh:D041761
umls:C1848578	omim:277380
umls:C0265998	omim:206800
umls:C1842539	omim:608104
umls:C1856974	omim:225753
umls:C0342646	omim:277440
umls:C1868617	omim:168300
umls:C0282528	mesh:D018901
umls:C1835829	omim:610798
umls:C0271714	omim:240800
umls:C0002792	mesh:D000707
umls:C0004153	mesh:D050197
umls:C2678468	omim:611895
umls:C1843042	omim:607812
umls:C0272375	mesh:D020152
umls:C1970344	omim:603585
umls:C0015523	mesh:D005173
umls:C0004135	mesh:D001260
umls:C0043202	mesh:D014927
umls:C0796093	omim:257980
umls:C1858172	omim:604717
umls:C2677109	omim:612233
umls:C1540912	mesh:D017681
umls:C1832099	omim:601583
umls:C0022596	mesh:D007645
umls:C1327918	omim:147750
umls:C1846839	omim:607084
umls:C1969053	omim:611560
umls:C1837429	omim:608782
umls:C0265334	mesh:D053549
umls:C0948089	mesh:D054058
umls:C0268419	mesh:D020642
umls:C0242788	mesh:D018567
umls:C1785148	omim:129400
umls:C0029434	mesh:D010013
umls:C1865234	omim:602540
umls:C1858680	omim:604218
umls:C0339277	mesh:D053559
umls:C0022658	mesh:D007674
umls:C0035126	mesh:D015427
umls:C1858328	omim:214950
umls:C0265301	omim:269500
umls:C1864877	omim:610427
umls:C0026987	omim:254450
umls:C0022578	mesh:D007640
umls:C1863752	omim:600791
umls:C0268505	omim:300600
umls:C2675228	omim:612650
umls:C0268647	omim:222700
umls:C1842127	omim:608380
umls:C1836485	omim:609260
umls:C1845167	omim:300555
umls:C0037316	mesh:D012892
umls:C0406557	omim:173650
umls:C0024232	mesh:D008207
umls:C0410204	omim:255200
umls:C0002395	mesh:D000544
umls:C1856936	omim:226670
umls:C0028077	mesh:D009755
umls:C0456909	mesh:D001766
umls:C1850076	omim:260540
umls:C1846564	omim:607259
umls:C0393807	omim:601152
umls:C0268186	omim:606824
umls:C1842572	omim:608093
umls:C1863561	omim:603720
umls:C0314657	mesh:D020022
umls:C1837341	omim:608808
umls:C1968603	omim:259720
umls:C1867983	omim:175780
umls:C0206624	mesh:D018197
umls:C1859773	omim:206900
umls:C1855681	omim:256100
umls:C1865643	omim:602347
umls:C1842402	omim:608189
umls:C1853247	omim:610250
umls:C1859133	omim:215100
umls:C0268563	omim:268900
umls:C0030193	mesh:D010146
umls:C1690006	omim:122200
umls:C1857829	omim:610140
umls:C0205711	mesh:D020371
umls:C1832370	omim:601419
umls:C1867155	omim:180550
umls:C1266127	omim:612160
umls:C0079154	mesh:D017490
umls:C0018790	mesh:D006323
umls:C1858656	omim:604271
umls:C1970506	omim:610852
umls:C0002965	mesh:D000789
umls:C0038013	mesh:D013167
umls:C1843164	omim:607734
umls:C0019699	mesh:D006679
umls:C2678484	omim:611819
umls:C0023448	mesh:D007945
umls:C0270968	omim:254110
umls:C0001627	mesh:D000312
umls:C0036489	mesh:D012618
umls:C2675470	omim:612624
umls:C1864852	omim:610474
umls:C0003466	mesh:D001006
umls:C0016667	mesh:D005600
umls:C0795833	omim:610253
umls:C2676788	omim:612285
umls:C0268118	omim:278300
umls:C0206157	mesh:D017696
umls:C0398788	omim:242860
umls:C1275685	omim:607541
umls:C2749864	omim:612073
umls:C0338488	omim:104290
umls:C0007772	mesh:D002538
umls:C1860339	omim:193510
umls:C0020474	mesh:D006950
umls:C1858496	omim:604348
umls:C1854678	omim:253290
umls:C0023092	mesh:D007835
umls:C1838603	omim:600132
umls:C0268393	mesh:D028243
umls:C1859040	omim:603860
umls:C0042790	mesh:D014786
umls:C2749982	omim:188580
umls:C1853137	omim:610713
umls:C1838457	omim:605724
umls:C2674838	omim:610251
umls:C1842028	omim:137750
umls:C0473219	omim:220150
umls:C1842109	omim:608393
umls:C1970848	omim:300653
umls:C0015503	mesh:D005168
umls:C1846343	omim:607364
umls:C1847827	omim:606593
umls:C0034050	mesh:D011649
umls:C0040136	mesh:D013964
umls:C0024115	mesh:D008171
umls:C1845333	omim:300498
umls:C0524910	mesh:D019698
umls:C0268465	omim:261630
umls:C1846248	omim:300183
umls:C1845672	omim:300387
umls:C1866656	omim:184460
umls:C0700595	mesh:D014897
umls:C1857744	omim:610220
umls:C1864498	omim:602722
umls:C0030846	mesh:D010409
umls:C1859807	omim:205100
umls:C1843013	omim:607822
umls:C2674252	omim:612542
umls:C0038868	mesh:D013494
umls:C0878682	omim:604290
umls:C1846265	omim:300166
umls:C2677565	omim:612069
umls:C1855100	omim:251120
umls:C0221759	mesh:D020968
umls:C0393814	omim:162500
umls:C0917796	mesh:D029242
umls:C0016412	mesh:D005494
umls:C1845070	omim:300643
umls:C1863012	omim:104510
umls:C0268371	omim:132000
umls:C3179239	omim:166600
umls:C0026267	mesh:D008945
umls:C1833382	omim:606392
umls:C0027658	mesh:D009373
umls:C0022116	mesh:D007511
umls:C0268262	omim:249900
umls:C0265201	omim:278800
umls:C2673635	omim:611721
umls:C1836517	omim:609254
umls:C0026697	mesh:D009081
umls:C1866008	omim:601954
umls:C2674321	omim:176860
umls:C1836006	omim:609549
umls:C0007286	mesh:D002349
umls:C1834144	omim:163800
umls:C0162674	mesh:D017246
umls:C1832918	omim:601003
umls:C1860228	omim:194470
umls:C0001080	mesh:D000130
umls:C1866777	omim:182980
umls:C0032371	mesh:D011051
umls:C0268468	omim:612716
umls:C1275278	omim:612237
umls:C1834478	omim:600208
umls:C2676466	omim:612389
umls:C1861367	omim:186000
umls:C1836743	omim:609129
umls:C2675750	omim:601544
umls:C1846574	omim:607250
umls:C0032580	mesh:D011125
umls:C1868598	omim:168500
umls:C1848296	omim:300018
umls:C1864446	omim:602772
umls:C0221406	mesh:D047748
umls:C0010073	mesh:D003329
umls:C2676766	omim:612301
umls:C1855548	omim:245590
umls:C0021831	mesh:D007410
umls:C0409818	omim:607115
umls:C0872218	omim:603041
umls:C0238358	mesh:D020514
umls:C0243026	mesh:D018805
umls:C0268243	mesh:D052537
umls:C0029456	mesh:D010024
umls:C1851585	omim:131440
umls:C1720416	omim:108500
umls:C1970197	omim:611093
umls:C0030443	mesh:D010245
umls:C0432217	omim:226980
umls:C0011993	mesh:D003969
umls:C0003469	mesh:D001008
umls:C1832394	omim:601386
umls:C0002878	mesh:D000743
umls:C1970011	omim:611228
umls:C0342705	omim:229050
umls:C0795956	omim:246700
umls:C0270851	mesh:D020936
umls:C2676676	omim:604370
umls:C1868193	omim:173600
umls:C0015499	mesh:D005166
umls:C1837974	omim:608471
umls:C1835851	omim:610765
umls:C0220756	mesh:D052556
umls:C1838625	omim:600118
umls:C0019061	mesh:D006463
umls:C0014804	mesh:D004916
umls:C1836182	omim:609441
umls:C0029442	mesh:D010018
umls:C1857779	omim:610189
umls:C1835437	omim:151210
umls:C1845341	omim:300494
umls:C1970416	omim:610965
umls:C2676465	omim:612390
umls:C1837174	omim:608898
umls:C0011168	mesh:D003680
umls:C0342853	mesh:D029461
umls:C0043459	mesh:D015211
umls:C0752160	mesh:D020786
umls:C1858301	omim:604537
umls:C1510455	mesh:D000168
umls:C1306856	omim:261100
umls:C0036631	mesh:D018239
umls:C1843251	omim:607677
umls:C1865915	omim:602078
umls:C0751882	mesh:D020294
umls:C2675192	omim:612690
umls:C0007621	mesh:D002471
umls:C0796237	omim:300558
umls:C1836892	omim:609048
umls:C0242422	mesh:D020734
umls:C0015625	mesh:D005199
umls:C1847835	omim:606579
umls:C0406585	omim:275210
umls:C0032708	mesh:D011164
umls:C1837371	omim:608800
umls:C0020502	mesh:D006961
umls:C1510502	mesh:D018249
umls:C0001206	mesh:D000172
umls:C0265286	omim:223800
umls:C0600433	mesh:D020016
umls:C0010606	mesh:D003528
umls:C2675488	omim:612580
umls:C1856255	omim:233690
umls:C0221263	mesh:D019080
umls:C1861355	omim:186200
umls:C1969092	omim:611498
umls:C0018784	mesh:D006319
umls:C1835905	omim:610353
umls:C0005830	mesh:D001796
umls:C1857588	omim:217080
umls:C1833296	omim:600795
umls:C0338473	mesh:D019150
umls:C1860991	omim:609942
umls:C0796012	omim:261540
umls:C0023462	mesh:D007947
umls:C0268626	omim:219900
umls:C0043194	mesh:D014923
umls:C0029125	mesh:D015418
umls:C1836023	omim:609535
umls:C1843478	omim:607598
umls:C0162565	mesh:D017118
umls:C1856016	omim:236680
umls:C0010417	mesh:D003456
umls:C0751783	mesh:D020192
umls:C2750815	omim:146550
umls:C0017919	mesh:D006008
umls:C1847200	omim:606889
umls:C0733682	mesh:D053098
umls:C0022738	mesh:D007714
umls:C0220668	omim:121050
umls:C0007789	mesh:D002547
umls:C1868595	omim:168601
umls:C1866095	omim:601868
umls:C1853102	omim:610756
umls:C1855648	omim:244460
umls:C0037889	mesh:D013103
umls:C0220697	omim:174200
umls:C0342749	omim:232240
umls:C1836860	omim:609054
umls:C0949658	mesh:D024741
umls:C0017636	mesh:D005909
umls:C1861861	omim:115210
umls:C1856738	omim:228900
umls:C0007766	mesh:D002532
umls:C1837845	omim:608567
umls:C0796173	omim:271700
umls:C1849140	omim:270550
umls:C0023896	mesh:D008108
umls:C2748568	omim:612782
umls:C0039590	mesh:D013736
umls:C0268542	mesh:D020163
umls:C1863959	omim:603373
umls:C0020480	mesh:D006953
umls:C0015423	mesh:D005141
umls:C0432210	omim:215150
umls:C0026848	mesh:D009135
umls:C1864948	omim:609975
umls:C1842124	omim:608389
umls:C0009782	mesh:D003240
umls:C0085605	mesh:D017093
umls:C1845028	omim:301310
umls:C0948368	omim:236700
umls:C1853942	omim:605814
umls:C0920269	mesh:D053842
umls:C0175694	mesh:D019082
umls:C0014356	mesh:D004760
umls:C0021841	mesh:D007414
umls:C1275808	omim:209880
umls:C2700426	omim:605990
umls:C1846896	omim:607039
umls:C2673642	omim:611719
umls:C1847319	omim:606864
umls:C1842778	omim:607941
umls:C0036202	mesh:D012507
umls:C0036875	mesh:D012734
umls:C1848805	omim:274400
umls:C0265265	omim:612561
umls:C0079294	mesh:D016108
umls:C2677516	omim:612095
umls:C1866077	omim:601887
umls:C1848526	omim:277470
umls:C2677434	omim:600625
umls:C1868681	omim:128235
umls:C1838854	omim:580000
umls:C0017925	mesh:D006013
umls:C1970309	omim:604278
umls:C1847013	omim:606966
umls:C1846672	omim:607155
umls:C0206247	mesh:D017772
umls:C0403720	omim:310468
umls:C0520739	omim:266140
umls:C0020757	mesh:D007057
umls:C1864761	omim:609698
umls:C0001815	mesh:D055728
umls:C1836669	omim:609180
umls:C1839161	omim:314050
umls:C0012715	mesh:D019189
umls:C1850395	omim:256840
umls:C0175701	omim:305400
umls:C1968550	omim:300055
umls:C0018798	mesh:D006330
umls:C3149750	omim:609560
umls:C0020473	mesh:D006949
umls:C3151476	omim:245400
umls:C1849157	omim:270450
umls:C0004610	mesh:D016470
umls:C2681923	omim:312600
umls:C1956346	mesh:D003324
umls:C0020523	mesh:D006969
umls:C0032914	mesh:D011225
umls:C1704981	omim:145001
umls:C1856128	omim:235550
umls:C1321489	mesh:D055653
umls:C1415817	omim:605376
umls:C1857242	omim:222765
umls:C0012236	mesh:D004062
umls:C0206657	mesh:D018234
umls:C0398738	omim:116920
umls:C0026633	mesh:D009056
umls:C0009405	mesh:D003123
umls:C0022350	mesh:D007566
umls:C2673266	omim:611722
umls:C1855577	omim:245340
umls:C2751536	omim:605714
umls:C1563716	mesh:D050033
umls:C0005129	mesh:D001606
umls:C0085183	mesh:D016609
umls:C1970269	omim:610978
umls:C0029401	mesh:D010001
umls:C0524851	mesh:D019636
umls:C0543514	omim:261750
umls:C0014457	mesh:D004802
umls:C0268389	omim:105200
umls:C1856399	omim:231900
umls:C0019196	mesh:D006526
umls:C1855792	omim:242100
umls:C2677586	omim:612020
umls:C0497327	mesh:D003704
umls:C1864878	omim:610426
umls:C0007097	mesh:D002277
umls:C1843920	omim:607426
umls:C1838429	omim:600204
umls:C0399440	omim:135300
umls:C0039445	mesh:D013683
umls:C1328355	omim:245660
umls:C1848137	omim:300088
umls:C0014544	mesh:D004827
umls:C1837839	omim:608569
umls:C0085409	mesh:D016884
umls:C0343047	omim:609536
umls:C1853276	omim:609823
umls:C1836672	omim:604379
umls:C1864738	omim:610048
umls:C0265224	omim:193700
umls:C1842362	omim:608233
umls:C1837210	omim:608874
umls:C0003499	mesh:D021921
umls:C0004903	mesh:D001506
umls:C0014805	omim:133020
umls:C1858556	omim:604308
umls:C1969639	omim:611407
umls:C1857743	omim:610612
umls:C0024523	mesh:D008286
umls:C1855849	omim:241200
umls:C0079218	mesh:D018222
umls:C1865018	omim:609622
umls:C0399352	mesh:D000848
umls:C0007279	mesh:D002345
umls:C1842534	omim:612126
umls:C0020672	mesh:D007035
umls:C0036118	mesh:D012481
umls:C0268119	omim:252150
umls:C1851741	omim:130600
umls:C0205770	mesh:D020288
umls:C0206042	mesh:D034062
umls:C0019562	mesh:D006623
umls:C1836482	omim:609265
umls:C2676770	omim:612292
umls:C0040015	mesh:D013915
umls:C0011853	mesh:D003921
umls:C1856245	omim:233710
umls:C0003460	mesh:D001002
umls:C1852529	omim:611489
umls:C1851970	omim:127550
umls:C0238052	mesh:D019294
umls:C0919267	mesh:D010051
umls:C1849700	omim:264070
umls:C1839264	omim:312920
umls:C0014549	mesh:D004830
umls:C2675491	omim:612577
umls:C0003873	mesh:D001172
umls:C0001418	mesh:D000230
umls:C2678483	omim:611820
umls:C2677590	omim:612015
umls:C0004936	mesh:D001523
umls:C0796160	omim:309583
umls:C0025235	mesh:D008556
umls:C2677549	omim:612076
umls:C1863728	omim:603552
umls:C0268328	omim:612740
umls:C1832215	omim:601536
umls:C1858493	omim:604352
umls:C0019050	mesh:D006457
umls:C1857719	omim:610629
umls:C0749424	omim:607464
umls:C1834653	omim:159001
umls:C1841984	omim:138000
umls:C2675526	omim:612541
umls:C1863599	omim:603689
umls:C2678155	omim:300306
umls:C0011065	mesh:D003643
umls:C2676786	omim:612286
umls:C1837203	omim:608890
umls:C1850126	omim:259710
umls:C1868597	omim:168550
umls:C0001828	mesh:D000382
umls:C1857780	omim:610188
umls:C0023290	mesh:D007898
umls:C0342738	omim:250620
umls:C2677162	omim:602025
umls:C1835828	omim:610799
umls:C0020557	mesh:D015228
umls:C0268548	mesh:D020162
umls:C0268413	omim:146300
umls:C2748895	mesh:D050090
umls:C2678015	omim:300718
umls:C1414216	omim:602629
umls:C1838571	omim:610951
umls:C1848410	omim:278750
umls:C1327915	omim:604498
umls:C1832978	omim:600974
umls:C0026709	mesh:D009087
umls:C0027819	mesh:D009447
umls:C0268146	omim:232220
umls:C0271742	omim:231550
umls:C0013364	mesh:D004402
umls:C0009376	mesh:D003111
umls:C1842982	omim:607832
umls:C0001197	mesh:D000169
umls:C0856761	mesh:D006502
umls:C1832845	omim:601067
umls:C0037231	mesh:D016111
umls:C1853198	omim:610313
umls:C0022680	mesh:D007690
umls:C0018023	mesh:D006044
umls:C1838437	omim:600195
umls:C1864205	omim:603075
umls:C1835614	omim:149400
umls:C0740394	mesh:D033461
umls:C0027947	mesh:D009503
umls:C0271051	mesh:D008269
umls:C1839874	omim:308990
umls:C1845919	omim:300301
umls:C0410179	omim:254090
umls:C1854896	omim:252605
umls:C0265226	omim:158300
umls:C1854063	omim:605676
umls:C0750384	omim:122700
umls:C1836123	omim:609460
umls:C1836544	omim:609241
umls:C0311375	mesh:D020261
umls:C0003886	mesh:D001176
umls:C0152439	mesh:D041441
umls:C1833809	omim:165300
umls:C1863600	omim:603688
umls:C1306503	mesh:D006554
umls:C0019080	mesh:D006470
umls:C1836032	omim:609529
umls:C1842930	omim:607847
umls:C0020456	mesh:D006943
umls:C0002874	mesh:D000741
umls:C0026650	mesh:D009069
umls:C2675487	omim:612581
umls:C0034155	mesh:D011697
umls:C0270736	mesh:D020329
umls:C0042018	mesh:D014545
umls:C0024408	mesh:D017827
umls:C0472817	omim:193670
umls:C1853214	omim:610282
umls:C0155912	omim:265100
umls:C1834821	omim:250460
umls:C2675302	omim:612370
umls:C1851536	omim:132450
umls:C1838280	omim:132400
umls:C0006384	mesh:D002037
umls:C1866425	omim:601706
umls:C0031900	mesh:D010855
umls:C1857853	omim:609741
umls:C0700299	omim:140700
umls:C0019243	mesh:D054179
umls:C0268355	omim:219200
umls:C1837640	omim:608641
umls:C1838568	omim:600145
umls:C2678045	omim:300707
umls:C0008073	mesh:D002658
umls:C1848411	omim:278740
umls:C0259771	omim:184500
umls:C0018021	mesh:D006042
umls:C1832174	omim:126600
umls:C0796147	mesh:D055673
umls:C1866174	omim:601815
umls:C1837245	omim:608837
umls:C1864887	omim:610042
umls:C0795950	omim:218000
umls:C0004114	mesh:D001254
umls:C1861305	omim:186570
umls:C0339278	omim:608470
umls:C0015944	mesh:D005322
umls:C1863236	omim:102700
umls:C1842983	omim:607831
umls:C1847089	omim:606943
umls:C0018500	mesh:D006201
umls:C1861366	omim:186100
umls:C1838192	omim:600363
umls:C1864923	omim:610003
umls:C0023234	mesh:D007873
umls:C1837475	omim:608747
umls:C0268494	omim:203100
umls:C1851100	omim:135750
umls:C0162566	mesh:D017119
umls:C1861303	omim:186580
umls:C0238357	mesh:D020513
umls:C1863655	omim:603629
umls:C0020433	mesh:D006932
umls:C0432233	omim:190350
umls:C1834558	omim:160150
umls:C2677481	omim:612132
umls:C0038358	mesh:D013276
umls:C2700425	omim:225410
umls:C0025268	mesh:D018813
umls:C1969084	omim:611523
umls:C2676728	omim:612336
umls:C0751778	mesh:D020191
umls:C0023521	mesh:D007965
umls:C1864952	omim:609968
umls:C1970470	omim:610913
umls:C1849096	omim:271245
umls:C2675184	omim:612714
umls:C1865145	omim:602579
umls:C1846534	omim:607277
umls:C0018133	mesh:D006086
umls:C0029899	mesh:D010040
umls:C0751753	mesh:D020165
umls:C0023897	mesh:D008109
umls:C0030779	mesh:D010381
umls:C2675188	omim:612702
umls:C1858725	omim:604169
umls:C0003872	mesh:D015535
umls:C1834570	omim:159900
umls:C0206708	mesh:D018290
umls:C0024894	mesh:D008413
umls:C0339284	omim:122000
umls:C2751938	omim:603513
umls:C0023817	mesh:D008072
umls:C2607914	omim:607154
umls:C0014173	mesh:D004714
umls:C0342870	omim:261515
umls:C0014116	mesh:D004694
umls:C1844678	omim:304400
umls:C1832378	omim:601414
umls:C0033680	mesh:D011504
umls:C2267227	mesh:D052018
umls:C1562113	omim:121850
umls:C2678503	omim:602482
umls:C0752166	mesh:D020788
umls:C0342739	omim:602079
umls:C0040034	mesh:D013921
umls:C1855109	omim:251100
umls:C0206245	mesh:D028227
umls:C1840235	omim:147250
umls:C1563720	omim:147950
umls:C0342687	omim:223360
umls:C1847800	omim:193500
umls:C0011882	mesh:D003929
umls:C1852267	omim:125250
umls:C0010308	mesh:D003409
umls:C0079295	omim:131760
umls:C0014550	mesh:D004831
umls:C0268543	omim:237310
umls:C0079504	mesh:D022861
umls:C1864843	omim:610498
umls:C0393665	mesh:D020528
umls:C0162819	mesh:D017445
umls:C1864900	omim:610024
umls:C0238190	mesh:D018979
umls:C1842704	omim:608013
umls:C0035305	mesh:D012163
umls:C0021364	mesh:D007248
umls:C1846058	omim:300260
umls:C2678477	omim:611876
umls:C1847532	omim:606768
umls:C1867773	omim:176500
umls:C0270210	omim:237900
umls:C0020217	mesh:D006828
umls:C1698581	omim:277000
umls:C2677087	omim:612269
umls:C0040028	mesh:D013920
umls:C1864668	omim:610131
umls:C0206115	mesh:D017624
umls:C0024143	mesh:D008181
umls:C0006413	mesh:D002051
umls:C1969060	omim:611548
umls:C0030297	mesh:D010190
umls:C0027080	mesh:D009212
umls:C0020479	mesh:D006952
umls:C0000786	mesh:D000022
umls:C1846142	omim:300240
umls:C1838023	omim:608443
umls:C0020615	mesh:D007003
umls:C0085261	mesh:D016715
umls:C0034067	mesh:D011656
umls:C1858562	omim:604292
umls:C1862394	omim:611493
umls:C0268113	omim:162000
umls:C0342288	omim:304790
umls:C1834235	omim:162210
umls:C0040517	mesh:D005879
umls:C1837857	omim:608565
umls:C0032897	mesh:D011218
umls:C0018099	mesh:D006073
umls:C1859148	omim:215045
umls:C1850938	omim:136900
umls:C1838701	omim:600060
umls:C1853154	omim:610687
umls:C0220722	omim:214150
umls:C1832916	omim:601005
umls:C0010495	mesh:D003483
umls:C1845343	omim:300491
umls:C1864879	omim:610425
umls:C0025312	mesh:D008591
umls:C1832680	omim:601154
umls:C1832322	omim:601457
umls:C2675512	omim:612562
umls:C0043346	mesh:D014983
umls:C0017668	mesh:D005923
umls:C1861829	omim:116150
umls:C0009404	mesh:D015179
umls:C0021311	mesh:D007239
umls:C0027055	mesh:D015428
umls:C2677567	omim:612067
umls:C0543859	omim:105500
umls:C2750610	omim:153670
umls:C1849334	omim:268310
umls:C0087012	mesh:D020754
umls:C0206698	mesh:D018281
umls:C0339273	omim:204870
umls:C1840646	omim:142330
umls:C0162526	mesh:D017088
umls:C0007222	mesh:D002318
umls:C1855995	omim:236792
umls:C1860406	omim:193220
umls:C0431693	omim:137920
umls:C0009375	mesh:D003110
umls:C2677794	omim:611938
umls:C1859966	omim:202700
umls:C1854488	omim:605259
umls:C1840471	omim:143095
umls:C0432227	omim:113500
umls:C1836906	omim:609040
umls:C1843807	omim:607483
umls:C1839564	omim:311150
umls:C1864827	omim:609637
umls:C1864850	omim:610476
umls:C1969054	omim:611556
umls:C0033054	mesh:D011297
umls:C1842197	omim:608340
umls:C0268374	omim:226650
umls:C1845446	omim:300472
umls:C2675213	omim:612652
umls:C1849507	omim:266120
umls:C1856057	omim:236270
umls:C1863844	omim:603471
umls:C2931008	omim:212066
umls:C1846171	omim:300215
umls:C0268187	omim:612119
umls:C1839333	omim:300672
umls:C1858517	omim:604320
umls:C1857618	omim:216900
umls:C0003125	mesh:D000856
umls:C1832476	omim:601316
umls:C0033687	mesh:D011507
umls:C0473527	mesh:D052456
umls:C2675459	omim:612631
umls:C1864623	omim:610582
umls:C0016952	mesh:D005693
umls:C1855861	omim:240600
umls:C0017926	mesh:D006014
umls:C0026766	mesh:D009102
umls:C1845546	omim:300422
umls:C1864987	omim:609634
umls:C0268467	omim:233910
umls:C0393818	omim:605253
umls:C2678476	omim:611878
umls:C1847650	omim:606688
umls:C1837991	omim:608456
umls:C1845530	omim:300434
umls:C0268524	omim:231950
umls:C1848172	omim:300071
umls:C1832162	omim:601553
umls:C0026838	mesh:D009128
umls:C0030422	mesh:D010236
umls:C1848561	omim:277400
umls:C1857768	omim:610202
umls:C0020538	mesh:D006973
umls:C0600142	mesh:D019584
umls:C1848533	omim:277460
umls:C0010314	mesh:D003410
umls:C0037199	mesh:D012852
umls:C1834336	omim:161800
umls:C0149521	mesh:D050500
umls:C1845668	omim:300388
umls:C0038160	mesh:D013203
umls:C0034013	mesh:D011629
umls:C1846496	omim:607313
umls:C2749604	omim:235400
umls:C0022876	mesh:D007752
umls:C0003615	mesh:D001064
umls:C0751083	omim:604356
umls:C1865070	omim:609579
umls:C0018799	mesh:D006331
umls:C0268141	omim:278780
umls:C0877024	omim:242900
umls:C0085159	mesh:D016574
umls:C3150343	omim:235700
umls:C1384665	omim:235200
umls:C3149104	omim:129600
umls:C1864839	omim:610508
umls:C1863727	omim:603553
umls:C1844020	omim:306955
umls:C1836727	omim:609136
umls:C1835845	omim:610773
umls:C0037952	mesh:D013132
umls:C0796208	omim:309541
umls:C1837896	omim:608540
umls:C0085131	mesh:D016537
umls:C0282631	mesh:D019066
umls:C0240912	omim:192950
umls:C0035457	mesh:D012221
umls:C0015526	mesh:D005175
umls:C1970180	omim:611105
umls:C0268414	omim:239000
umls:C1836033	omim:609528
umls:C2677587	omim:612018
umls:C0020640	mesh:D007020
umls:C0162510	mesh:D016767
umls:C1836284	omim:609352
umls:C1866176	omim:601813
umls:C0162530	mesh:D017092
umls:C0036421	mesh:D012595
umls:C0265295	omim:156400
umls:C1848029	omim:606408
umls:C1846529	omim:610283
umls:C1863659	omim:603622
umls:C1291299	omim:274500
umls:C1856465	omim:231095
umls:C0017150	mesh:D015408
umls:C0403812	omim:243060
umls:C0027889	mesh:D009477
umls:C1275126	omim:142680
umls:C0032927	mesh:D011230
umls:C1865019	omim:609621
umls:C0677607	mesh:D050031
umls:C0268285	omim:202110
umls:C0266006	omim:262000
umls:C2678497	omim:611804
umls:C2673198	omim:611762
umls:C0553730	mesh:D002805
umls:C1853392	omim:606367
umls:C0268596	mesh:D054069
umls:C0018939	mesh:D006402
umls:C0039584	mesh:D013733
umls:C0265333	omim:190320
umls:C1847987	omim:606438
umls:C2678055	omim:300696
umls:C1862102	omim:113300
umls:C2677535	omim:612079
umls:C0042580	mesh:D014718
umls:C1832998	omim:600969
umls:C0265260	omim:200700
umls:C0795889	omim:300523
umls:C0029411	mesh:D010004
umls:C0265283	omim:108720
umls:C0268474	omim:236800
umls:C0340485	omim:192605
umls:C0025517	mesh:D008659
umls:C1845862	omim:300352
umls:C0242387	mesh:D008342
umls:C1969893	omim:136630
umls:C0023772	mesh:D008052
umls:C0024796	mesh:D008382
umls:C1142166	mesh:D053840
umls:C0271789	omim:275100
umls:C1865409	omim:602433
umls:C0268242	mesh:D052536
umls:C1809471	omim:145980
umls:C0751651	mesh:D028361
umls:C1843140	omim:607745
umls:C0376480	mesh:D019214
umls:C1968556	omim:300673
umls:C0524948	mesh:D019767
umls:C1970237	omim:611038
umls:C0025007	mesh:D008457
umls:C2675859	omim:612528
umls:C2673759	omim:220290
umls:C0040761	mesh:D014188
umls:C1835934	omim:609886
umls:C1849930	omim:261550
umls:C1865832	omim:602111
umls:C1854664	omim:253310
umls:C0796070	omim:309801
umls:C1291609	omim:608611
umls:C0023786	mesh:D008059
umls:C0403814	omim:277180
umls:C0024668	mesh:D008325
umls:C0005283	mesh:D017086
umls:C0022398	mesh:D007589
umls:C1858392	omim:604387
umls:C1968843	omim:611638
umls:C0085548	mesh:D017044
umls:C0043207	mesh:D014929
umls:C1861735	omim:117300
umls:C1840296	omim:146590
umls:C0221023	omim:162800
umls:C0206644	mesh:D018219
umls:C1853205	omim:610293
umls:C0265259	omim:119500
umls:C0004779	mesh:D001478
umls:C1837213	omim:608864
umls:C2607929	omim:160980
umls:C0027627	mesh:D009362
umls:C1853100	omim:610758
umls:C0003486	mesh:D001014
umls:C0010078	mesh:D003333
umls:C1844579	omim:305390
umls:C1970119	omim:600919
umls:C1850127	omim:259700
umls:C0016059	mesh:D005355
umls:C2676767	omim:612300
umls:C0028797	mesh:D009784
umls:C1845336	omim:300496
umls:C1865290	omim:602485
umls:C0268311	omim:606785
umls:C0265293	omim:305620
umls:C0016470	mesh:D005512
umls:C0000832	mesh:D000037
umls:C0019569	mesh:D006627
umls:C0017980	mesh:D006030
umls:C3152055	omim:600721
umls:C0993582	mesh:D001169
umls:C1863753	omim:603543
umls:C0162872	mesh:D017545
umls:C1842149	omim:608361
umls:C1836050	omim:609524
umls:C1846545	omim:607271
umls:C0270911	omim:118220
umls:C0003864	mesh:D001168
umls:C0085106	mesh:D016506
umls:C0043117	mesh:D016553
umls:C0035344	mesh:D012178
umls:C0002986	mesh:D000795
umls:C2675235	omim:612645
umls:C0001623	mesh:D000309
umls:C0040479	mesh:D016171
umls:C0025521	mesh:D008661
umls:C1970224	omim:611064
umls:C1864873	omim:610441
umls:C0220993	omim:219500
umls:C0011989	mesh:D003966
umls:C0687720	mesh:D020790
umls:C1837007	omim:609006
umls:C1838099	omim:600501
umls:C1876187	omim:211900
umls:C2673196	omim:611771
umls:C2673913	omim:206100
umls:C3152144	omim:601495
umls:C0398782	omim:212070
umls:C1839130	omim:314250
umls:C2749137	omim:300455
umls:C0700635	omim:184250
umls:C1845987	omim:300299
umls:C1855498	omim:246650
umls:C1852502	omim:123000
umls:C1860405	omim:193230
umls:C1854311	omim:605387
umls:C0392525	mesh:D053040
umls:C1970822	omim:300676
umls:C1850992	omim:136520
umls:C1848634	omim:276901
umls:C0265267	omim:308050
umls:C0017638	mesh:D005910
umls:C1800706	mesh:D054990
umls:C1837355	omim:608804
umls:C0011854	mesh:D003922
umls:C0282527	mesh:D052919
umls:C0023794	mesh:D008064
umls:C1269683	mesh:D003865
umls:C0740302	omim:153550
umls:C0014084	mesh:D004687
umls:C0025958	mesh:D008831
umls:C0175697	omim:119300
umls:C0751967	mesh:D020529
umls:C1850442	omim:256731
umls:C1859198	omim:214400
umls:C1842357	omim:608236
umls:C0432255	omim:231070
umls:C0162533	mesh:D017094
umls:C1864233	omim:603034
umls:C1833213	omim:600886
umls:C1855796	omim:241600
umls:C0268362	omim:259420
umls:C2673186	omim:611788
umls:C0002895	mesh:D000755
umls:C0162532	mesh:D046350
umls:C0007384	mesh:D002385
umls:C0024305	mesh:D008228
umls:C1833662	omim:167320
umls:C0162836	mesh:D017497
umls:C1168401	omim:275355
umls:C0268495	omim:203200
umls:C0027643	mesh:D009364
umls:C0796095	omim:211750
umls:C0878544	mesh:D009202
umls:C0039870	mesh:D013851
umls:C1843512	omim:607595
umls:C1848552	omim:277410
umls:C0007194	mesh:D002312
umls:C1842979	omim:607836
umls:C1843815	omim:607476
umls:C1836447	omim:609285
umls:C2678098	omim:300633
umls:C1859974	omim:202200
umls:C1969024	omim:611615
umls:C1845543	omim:300423
umls:C1864826	omim:609638
umls:C0268398	omim:105250
umls:C1842475	omim:608133
umls:C1261473	mesh:D012509
umls:C1855627	omim:245010
umls:C0035334	mesh:D012174
umls:C1860518	omim:192315
umls:C0004044	mesh:D001237
umls:C0812437	omim:164200
umls:C1855794	omim:241850
umls:C1257959	mesh:D044903
umls:C2673630	omim:225250
umls:C0013374	mesh:D004406
umls:C0013903	mesh:D004613
umls:C0042900	mesh:D014820
umls:C1961099	mesh:D054218
umls:C2675867	omim:612518
umls:C1833308	omim:600794
umls:C1863551	omim:603776
umls:C0600467	mesh:D020078
umls:C1864621	omim:610599
umls:C1843791	omim:607487
umls:C0342731	mesh:D054078
umls:C2678478	omim:611875
umls:C1866293	omim:601777
umls:C1834523	omim:601680
umls:C1394891	omim:261000
umls:C0376634	mesh:D019465
umls:C0003850	mesh:D001161
umls:C0027726	mesh:D009404
umls:C2677065	omim:612281
umls:C0017551	mesh:D005878
umls:C1843832	omim:607473
umls:C1861348	omim:186300
umls:C0432317	omim:131950
umls:C1835677	omim:148300
umls:C1869115	omim:608328
umls:C1864910	omim:610015
umls:C1860861	omim:190300
umls:C1861828	omim:116200
umls:C0270952	mesh:D039141
umls:C0238198	mesh:D046152
umls:C0007873	mesh:D002583
umls:C0272137	omim:300622
umls:C0751785	mesh:D020194
umls:C1864723	omim:610090
umls:C0432208	omim:224410
umls:C0034341	mesh:D015324
umls:C0018553	mesh:D006223
umls:C0007642	mesh:D002481
umls:C0022336	mesh:D007562
umls:C0006287	mesh:D001997
umls:C0342849	mesh:D044905
umls:C0018671	mesh:D006258
umls:C1846720	omim:607133
umls:C0010823	mesh:D003586
umls:C0752347	mesh:D020961
umls:C1844776	omim:304020
umls:C1836797	omim:609060
umls:C0019151	mesh:D006501
umls:C1721005	mesh:D053529
umls:C1842816	omim:607921
umls:C0265280	omim:184252
umls:C0038644	mesh:D013398
umls:C1861848	omim:115310
umls:C0013421	mesh:D004421
umls:C1837026	omim:608978
umls:C0007138	mesh:D002295
umls:C0022387	mesh:D029593
umls:C0008925	mesh:D002972
umls:C0011813	mesh:D003914
umls:C0009207	mesh:D003057
umls:C0020676	mesh:D007037
umls:C2677326	omim:612164
umls:C0221018	omim:300751
umls:C1853278	omim:609821
umls:C0852077	mesh:D025861
umls:C1969040	omim:611588
umls:C0017924	mesh:D006012
umls:C1866430	omim:601696
umls:C0022593	mesh:D007642
umls:C0040038	mesh:D013923
umls:C1260386	omim:103900
umls:C1836602	omim:609220
umls:C0023343	mesh:D007918
umls:C1832932	omim:600994
umls:C1833030	omim:600962
umls:C0018273	mesh:D006130
umls:C0009806	mesh:D003248
umls:C1850959	omim:136800
umls:C3149462	omim:143470
umls:C2675187	omim:612703
umls:C1837481	omim:608728
umls:C0013238	mesh:D015352
umls:C1848934	omim:272460
umls:C1837229	omim:608840
umls:C0032285	mesh:D011014
umls:C0025205	mesh:D008546
umls:C1636149	omim:217800
umls:C1858991	omim:603896
umls:C0009447	mesh:D017074
umls:C1847836	omim:606574
umls:C0268689	omim:264700
umls:C0342792	omim:245050
umls:C1842180	omim:608354
umls:C0006434	mesh:D002056
umls:C1856689	omim:229300
umls:C0003635	mesh:D001072
umls:C1839454	omim:312060
umls:C1842090	omim:608404
umls:C1720887	mesh:D052776
umls:C0349653	omim:212065
umls:C1837552	omim:608673
umls:C0011436	mesh:D003811
umls:C0751951	mesh:D020512
umls:C1853833	omim:605909
umls:C1836302	omim:609338
umls:C0005941	mesh:D001848
umls:C0009917	mesh:D003286
umls:C1832567	omim:607801
umls:C0206307	mesh:D017825
umls:C0032226	mesh:D010995
umls:C0457013	omim:193530
umls:C0796089	omim:257320
umls:C1260899	mesh:D029503
umls:C0581883	mesh:D003638
umls:C1845235	omim:300537
umls:C1869117	omim:118800
umls:C1853120	omim:610733
umls:C0266526	omim:310600
umls:C0027127	mesh:D009224
umls:C0011615	mesh:D003876
umls:C0018818	mesh:D006345
umls:C1854335	omim:605375
umls:C2675528	omim:612539
umls:C0221060	mesh:D020331
umls:C1865872	omim:602088
umls:C1845136	omim:300578
umls:C0002876	mesh:D000742
umls:C2931258	omim:204000
umls:C1861172	mesh:D054556
umls:C0015397	mesh:D005128
umls:C0268360	omim:166210
umls:C0030567	mesh:D010300
umls:C1970243	omim:611015
umls:C0020445	mesh:D006938
umls:C1840529	omim:142945
umls:C0020437	mesh:D006934
umls:C0268530	omim:239510
umls:C1384666	mesh:D034381
umls:C0027092	mesh:D009216
umls:C1832175	omim:601547
umls:C1384583	mesh:D054331
umls:C0019693	mesh:D015658
umls:C0027888	mesh:D015417
umls:C0398593	omim:245480
umls:C1864112	omim:603218
umls:C0268595	omim:231670
umls:C0017658	mesh:D005921
umls:C1863634	omim:603649
umls:C1832399	omim:601382
umls:C1834877	omim:157170
umls:C1835171	omim:154020
umls:C1850718	omim:255125
umls:C0022661	mesh:D007676
umls:C0393929	omim:254210
umls:C1846632	omim:607200
umls:C1853258	omim:610227
umls:C1833275	omim:600802
umls:C1857798	omim:610163
umls:C0431943	mesh:D038061
umls:C1853578	omim:606159
umls:C0029408	mesh:D010003
umls:C0162809	mesh:D017436
umls:C0574080	omim:612736
umls:C0011991	mesh:D003967
umls:C1845243	omim:300534
umls:C0029882	mesh:D010033
umls:C0175704	mesh:D044542
umls:C0268363	omim:166220
umls:C0524620	mesh:D024821
umls:C1843116	omim:607765
umls:C1865885	omim:602083
umls:C0265308	omim:218600
umls:C0342642	omim:193100
umls:C0023522	mesh:D007966
umls:C1852372	omim:124000
umls:C0162568	mesh:D046351
umls:C1835897	omim:610356
umls:C1857034	omim:225320
umls:C0694566	omim:209950
umls:C0220743	omim:241510
umls:C0345893	omim:174900
umls:C0001733	mesh:D000347
umls:C1839780	omim:300623
umls:C0241908	omim:141200
umls:C1849394	omim:268100
umls:C1853508	omim:606217
umls:C1842939	omim:607841
umls:C0282612	mesh:D019048
umls:C1833561	omim:600630
umls:C0403554	omim:267300
umls:C0011884	mesh:D003930
umls:C1837530	omim:608688
umls:C1866558	omim:601634
umls:C0220754	mesh:D028921
umls:C1458155	mesh:D001943
umls:C0035934	mesh:D012415
umls:C0004238	mesh:D001281
umls:C0432306	mesh:D053560
umls:C1832274	omim:601472
umls:C1852759	omim:120330
umls:C0007282	mesh:D016893
umls:C1641846	omim:121900
umls:C0033575	mesh:D011469
umls:C2677106	omim:612240
umls:C2675211	omim:612656
umls:C0023269	mesh:D007890
umls:C1851490	omim:133100
umls:C1853698	omim:606072
umls:C1527170	omim:105120
umls:C0008928	mesh:D002973
umls:C0023860	mesh:D008088
umls:C0149931	mesh:D008881
umls:C0152101	mesh:D018636
umls:C1333989	omim:607174
umls:C0796126	omim:225750
umls:C0220992	omim:235800
umls:C0221026	omim:300755
umls:C0268337	omim:130020
umls:C1838049	omim:600513
umls:C2675556	omim:608033
umls:C1837008	omim:608996
umls:C1832334	omim:601455
umls:C1856603	omim:230450
umls:C0022521	mesh:D007619
umls:C3151519	omim:253280
umls:C0162835	mesh:D017496
umls:C0271695	omim:262190
umls:C0023530	mesh:D007970
umls:C2675527	omim:612540
umls:C1853144	omim:610706
umls:C2674127	omim:608967
umls:C2673195	omim:611773
umls:C1835042	omim:155755
umls:C1858990	omim:603902
umls:C1834692	omim:158590
umls:C1843808	omim:607482
umls:C1263858	omim:607855
umls:C1849813	omim:261740
umls:C1853761	omim:606002
umls:C1847593	omim:226900
umls:C0282193	mesh:D019190
umls:C0017671	mesh:D005925
umls:C0031154	mesh:D010538
umls:C0265964	omim:124500
umls:C1970021	omim:611182
umls:C2675212	omim:612653
umls:C1519176	omim:181030
umls:C0041341	mesh:D014402
umls:C1834659	omim:159000
umls:C1859499	omim:210210
umls:C0268237	mesh:D030401
umls:C1969056	omim:611554
umls:C0007820	mesh:D002561
umls:C3149074	omim:121200
umls:C0018801	mesh:D006333
umls:C0598608	mesh:D020138
umls:C0432322	omim:131750
umls:C0431401	omim:206700
umls:C1970207	omim:611081
umls:C1853733	omim:606069
umls:C1861832	omim:115700
umls:C0024236	mesh:D008209
umls:C1868310	omim:172870
umls:C2677589	omim:612016
umls:C0018213	mesh:D006111
umls:C1968602	omim:265120
umls:C1970239	omim:611022
umls:C1864861	omim:610455
umls:C0016658	mesh:D050723
umls:C1832894	omim:141500
umls:C2674574	omim:610380
umls:C0004364	mesh:D001327
umls:C1970456	omim:610921
umls:C0268138	omim:278730
umls:C0017566	mesh:D005885
umls:C2750893	omim:607628
umls:C0023267	mesh:D007889
umls:C0268416	omim:226200
umls:C1864870	omim:610444
umls:C1969038	omim:611590
umls:C1858479	omim:604360
umls:C0002882	mesh:D000746
umls:C1843247	omim:607678
umls:C0268335	omim:130000
umls:C2676271	omim:612422
umls:C2678471	omim:611890
umls:C0268312	omim:211600
umls:C0005411	mesh:D001656
umls:C0027962	mesh:D009508
umls:C0016788	mesh:D005645
umls:C0036161	mesh:D012497
umls:C0270850	omim:600669
umls:C1850671	omim:255600
umls:C0012979	mesh:D004283
umls:C2931276	omim:270685
umls:C0342195	omim:274800
umls:C0220662	omim:108120
umls:C0342786	omim:609016
umls:C1836635	omim:609192
umls:C0343068	omim:120100
umls:C1843895	omim:607453
umls:C1839163	omim:313900
umls:C0035335	mesh:D012175
umls:C0574084	omim:258501
umls:C1851102	omim:135700
umls:C1835916	omim:610329
umls:C0268600	omim:210200
umls:C0036439	mesh:D012600
umls:C0019202	mesh:D006527
umls:C0585216	omim:300448
umls:C0394006	omim:224050
umls:C0856830	omim:118600
umls:C1970291	omim:604625
umls:C1858664	omim:604250
umls:C2675236	omim:612644
umls:C0020542	mesh:D006976
umls:C1969644	omim:611391
umls:C1563715	mesh:D050030
umls:C1862151	omim:112500
umls:C0007117	mesh:D002280
umls:C0023470	mesh:D007951
umls:C0270611	mesh:D001930
umls:C0043119	mesh:D014898
umls:C1864694	omim:610102
umls:C0037274	mesh:D012871
umls:C0019069	mesh:D006467
umls:C1845667	omim:300029
umls:C1859727	omim:208000
umls:C1837438	omim:608776
umls:C0032463	mesh:D011087
umls:C0553662	mesh:D001171
umls:C1837728	omim:608627
umls:C0206368	mesh:D017889
umls:C1828210	omim:153870
umls:C0272170	omim:260400
umls:C0027877	mesh:D009472
umls:C1850096	omim:260370
umls:C0338480	mesh:D020326
umls:C1842422	omim:608180
umls:C1853490	omim:606232
umls:C0041207	mesh:D014339
umls:C2677889	omim:300752
umls:C0311338	omim:136880
umls:C0162531	mesh:D046349
umls:C0272339	omim:612423
umls:C0026764	mesh:D009101
umls:C0410189	mesh:D020389
umls:C1868569	omim:169150
umls:C1866075	omim:601894
umls:C1833661	omim:167400
umls:C1858391	omim:604391
umls:C0039730	mesh:D013789
umls:C1857821	omim:611755
umls:C1851413	omim:133701
umls:C1846385	omim:607341
umls:C1847759	omim:606612
umls:C0013080	mesh:D004314
umls:C1853297	omim:609812
umls:C0270853	mesh:D020190
umls:C1835398	omim:151623
umls:C0220701	omim:180100
umls:C1859194	omim:214450
umls:C0039101	mesh:D013584
umls:C0265235	omim:154780
umls:C0002312	mesh:D017085
umls:C1864041	omim:603284
umls:C0035258	mesh:D012148
umls:C0024299	mesh:D008223
umls:C0017920	mesh:D005953
umls:C0011881	mesh:D003928
umls:C2936777	omim:601451
umls:C0036220	mesh:D012514
umls:C1861669	omim:118300
umls:C1835820	omim:610828
umls:C1843816	omim:607475
umls:C0001824	mesh:D000380
umls:C1843315	omim:607641
umls:C1868397	omim:171200
umls:C1844853	omim:302950
umls:C1839071	omim:415000
umls:C1275122	omim:601606
umls:C1838779	omim:600002
umls:C0024121	mesh:D008175
umls:C0030521	mesh:D010282
umls:C2673520	omim:612635
umls:C0342793	omim:248360
umls:C2931618	mesh:D031901
umls:C1856934	omim:226730
umls:C0038002	mesh:D013163
umls:C0013338	mesh:D004393
umls:C0024312	mesh:D008231
umls:C1846421	omim:607330
umls:C2673883	omim:208540
umls:C0007758	mesh:D002524
umls:C1842398	omim:608203
umls:C0266004	omim:149200
umls:C1306122	omim:258100
umls:C0265220	mesh:D054975
umls:C0024145	omim:610448
umls:C0018923	mesh:D006394
umls:C1838612	omim:600121
umls:C1838100	omim:600496
umls:C1969657	omim:611363
umls:C1852438	omim:604307
umls:C0032460	mesh:D011085
umls:C1869123	omim:253600
umls:C1854158	omim:605583
umls:C1864730	omim:610069
umls:C0265514	omim:166700
umls:C0406582	omim:236490
umls:C0023895	mesh:D008107
umls:C0002726	mesh:D000686
umls:C1846695	omim:607143
umls:C0027126	mesh:D009223
umls:C0796244	omim:300419
umls:C0015695	mesh:D005234
umls:C0039373	mesh:D013661
umls:C1848435	omim:278150
umls:C0154723	mesh:D020325
umls:C0038505	mesh:D013341
umls:C0236642	mesh:D020774
umls:C0018552	mesh:D006222
umls:C1859877	omim:203655
umls:C0033805	mesh:D011546
umls:C1835928	omim:609909
umls:C0393593	mesh:D020821
umls:C0023176	mesh:D007855
umls:C0036095	mesh:D012468
umls:C1866495	omim:601678
umls:C0043092	mesh:D014890
umls:C1853445	omim:606324
umls:C0206686	mesh:D018268
umls:C1832931	omim:600996
umls:C0033860	mesh:D011565
umls:C1859722	omim:208085
umls:C1836824	omim:609056
umls:C0028064	mesh:D009542
umls:C0268390	omim:191900
umls:C0013295	mesh:D004381
umls:C1838979	omim:252010
umls:C1858968	omim:603909
umls:C2676498	omim:612362
umls:C0022104	mesh:D043183
umls:C0023485	mesh:D015452
umls:C1865343	omim:602475
umls:C1335929	omim:162091
umls:C0010273	mesh:D003394
umls:C0025637	mesh:D008708
umls:C0018995	mesh:D006432
umls:C1857574	omim:217300
umls:C1969029	omim:611603
umls:C0271097	mesh:D052245
umls:C1847711	omim:258660
umls:C1836439	omim:609286
umls:C0600260	mesh:D008173
umls:C1836080	omim:609508
umls:C1970211	omim:611067
umls:C0005747	mesh:D001764
umls:C0339573	omim:137760
umls:C0085576	omim:206200
umls:C0017168	mesh:D005764
umls:C0265309	omim:127300
umls:C0432316	omim:131960
umls:C0007760	mesh:D002526
umls:C1970005	omim:611263
umls:C0023308	mesh:D007905
umls:C0016756	mesh:D015319
umls:C1843292	omim:607655
umls:C0342643	omim:241520
umls:C0020649	mesh:D007022
umls:C0009081	mesh:D003025
umls:C0085220	mesh:D016657
umls:C0020459	mesh:D006946
umls:C1848604	omim:276904
umls:C1857775	omim:610199
umls:C0027746	mesh:D009410
umls:C1862388	omim:108900
umls:C1864356	omim:602875
umls:C1291564	omim:608643
umls:C0206180	mesh:D017728
umls:C1840333	omim:146255
umls:C2678046	omim:300706
umls:C0265269	omim:149730
umls:C0268164	omim:259900
umls:C1864651	omim:610539
umls:C0162316	mesh:D018798
umls:C1858266	omim:604571
umls:C1837750	omim:608615
umls:C1841762	omim:139300
umls:C0032962	mesh:D011248
umls:C0002452	mesh:D000567
umls:C2750720	omim:608194
umls:C0241005	omim:123320
umls:C2677092	omim:612260
umls:C1862382	omim:108985
umls:C1843153	omim:607736
umls:C0023434	mesh:D015451
umls:C1858672	omim:604233
umls:C0041296	mesh:D014376
umls:C0019284	mesh:D006548
umls:C1865871	omim:602089
umls:C0751674	mesh:D018192
umls:C1836373	omim:609308
umls:C0162670	mesh:D017240
umls:C0393559	omim:275900
umls:C1847720	omim:606664
umls:C0085110	mesh:D016511
umls:C0030354	mesh:D010212
umls:C1858386	omim:604393
umls:C0265253	omim:108300
umls:C1858361	omim:604416
umls:C1857811	omim:610153
umls:C2675229	omim:612649
umls:C1838547	omim:606719
umls:C0236664	mesh:D019973
umls:C0009363	mesh:D003103
umls:C0012243	mesh:D004067
umls:C2608083	omim:605479
umls:C1970244	omim:611014
umls:C0015398	mesh:D015785
umls:C0019209	mesh:D006529
umls:C1846331	omim:607371
umls:C0023601	mesh:D007984
umls:C0029172	mesh:D009914
umls:C0021359	mesh:D007246
umls:C1858379	omim:604400
umls:C0029458	mesh:D015663
umls:C0338586	mesh:D020217
umls:C0014527	mesh:D004820
umls:C1851920	omim:128230
umls:C0023195	mesh:D007863
umls:C1837811	omim:608584
umls:C1850889	omim:253601
umls:C1832645	omim:239200
umls:C0031511	mesh:D010673
umls:C0008533	mesh:D002836
umls:C1855304	omim:249500
umls:C0023493	mesh:D015459
umls:C0398626	omim:612356
umls:C0344559	omim:604229
umls:C2676023	omim:115300
umls:C0033922	mesh:D011596
umls:C0003949	mesh:D001195
umls:C0007137	mesh:D002294
umls:C1832425	omim:601369
umls:C1866138	omim:601847
umls:C0014548	mesh:D004829
umls:C0235974	omim:260350
umls:C2675186	omim:612712
umls:C1861537	omim:119530
umls:C1843761	omim:607523
umls:C1864689	omim:607932
umls:C1842563	omim:608097
umls:C1844934	omim:301830
umls:C0553604	mesh:D020967
umls:C0086543	mesh:D002386
umls:C1842914	omim:608161
umls:C2748557	omim:612783
umls:C0268292	omim:202010
umls:C0796250	omim:309510
umls:C0016978	mesh:D005706
umls:C0017416	mesh:D005833
umls:C1838570	omim:600143
umls:C1850808	omim:254130
umls:C1843211	omim:607688
umls:C0015519	mesh:D005171
umls:C1864846	omim:610489
umls:C0268342	omim:225400
umls:C0403445	omim:153640
umls:C0206646	mesh:D018221
umls:C1845366	omim:300486
umls:C1848862	omim:273750
umls:C0265341	omim:180500
umls:C0010346	mesh:D003424
umls:C0020443	mesh:D006937
umls:C0002881	mesh:D000745
umls:C2676232	omim:612446
umls:C0042487	mesh:D020246
umls:C0018817	mesh:D006344
umls:C0039743	mesh:D013796
umls:C1856058	omim:236250
umls:C0428977	mesh:D001919
umls:C1846175	omim:300209
umls:C0006118	mesh:D001932
umls:C2674218	omim:182900
umls:C1849792	omim:262300
umls:C0010964	mesh:D003616
umls:C0011603	mesh:D003872
umls:C1867462	omim:177720
umls:C1849385	omim:268210
umls:C1839884	omim:308940
umls:C1291230	omim:231530
umls:C0008489	mesh:D002819
umls:C0796135	omim:309500
umls:C0410173	omim:253700
umls:C1854631	omim:605115
umls:C1843330	omim:607634
umls:C1835485	omim:150800
umls:C1863704	omim:603563
umls:C0410180	omim:602771
umls:C2745945	omim:153700
umls:C1849115	omim:270800
umls:C0333355	mesh:D052016
umls:C1868672	omim:600995
umls:C0022716	mesh:D007706
umls:C2673187	omim:611783
umls:C1857569	omim:217700
umls:C0086651	omim:253000
umls:C1858806	omim:604116
umls:C0085083	mesh:D016471
umls:C0410538	omim:177170
umls:C2674876	omim:610168
umls:C2675473	omim:612621
umls:C2673677	omim:611705
umls:C1858079	omim:604864
umls:C1833797	omim:165550
umls:C1970712	omim:610755
umls:C0796176	omim:601559
umls:C2676285	omim:612394
umls:C0024591	mesh:D008305
umls:C0032343	mesh:D011041
umls:C1300226	omim:215140
umls:C0273115	mesh:D055370
umls:C0268297	omim:264600
umls:C1843896	omim:607450
umls:C1864849	omim:610478
umls:C0271694	mesh:D052496
umls:C0920350	mesh:D013967
umls:C1969081	omim:611528
umls:C1837501	omim:608716
umls:C0265210	omim:277590
umls:C1833229	omim:600881
umls:C1955869	mesh:D054220
umls:C1970879	omim:300636
umls:C0265965	mesh:D019871
umls:C0010324	mesh:D003414
umls:C1853296	omim:609813
umls:C1866560	omim:601631
umls:C1863224	omim:102900
umls:C1858854	omim:604004
umls:C0268529	omim:239500
umls:C0023893	mesh:D008106
umls:C0948480	mesh:D023903
umls:C0013575	mesh:D004476
umls:C0013423	mesh:D004422
umls:C1850674	omim:255320
umls:C1968804	omim:217090
umls:C1865614	omim:602390
umls:C2677770	omim:611960
umls:C0795998	omim:123150
umls:C1851124	omim:135290
umls:C2676782	omim:612287
umls:C2674508	omim:610532
umls:C0432321	omim:131850
umls:C0026691	mesh:D009080
umls:C0033806	mesh:D011547
umls:C1832702	omim:112600
umls:C0034069	mesh:D011658
umls:C0038454	mesh:D020521
umls:C1839580	omim:310700
umls:C0085280	mesh:D016738
umls:C1836780	omim:609069
umls:C0030305	mesh:D010195
umls:C0021846	mesh:D007417
umls:C1837756	omim:608612
umls:C1846168	omim:300220
umls:C1969032	omim:611597
umls:C0023903	mesh:D008113
umls:C1845334	omim:300497
umls:C0268336	omim:130010
umls:C1840528	omim:142946
umls:C0031106	mesh:D010520
umls:C0152171	omim:178600
umls:C0032339	mesh:D011038
umls:C0034734	mesh:D011928
umls:C0011860	mesh:D003924
umls:C0023976	mesh:D008133
umls:C0008372	mesh:D002780
umls:C0017922	mesh:D006010
umls:C0220726	omim:222600
umls:C0017185	mesh:D005770
umls:C0017662	mesh:D015432
umls:C0399368	omim:104500
umls:C1837317	omim:608810
umls:C1970483	omim:610878
umls:C0024530	mesh:D008288
umls:C1837014	omim:607554
umls:C0270913	omim:601098
umls:C0020517	mesh:D006967
umls:C0034960	mesh:D012035
umls:C1864746	omim:609706
umls:C0268345	omim:130060
umls:C1855114	omim:251000
umls:C2748572	omim:612780
umls:C2675237	omim:612643
umls:C0036341	mesh:D012559
umls:C1970458	omim:610915
umls:C1846242	omim:300194
umls:C0022568	mesh:D007634
umls:C0334041	omim:166350
umls:C1833691	omim:166780
umls:C1845073	omim:300640
umls:C2677491	omim:612124
umls:C0021670	mesh:D007340
umls:C0162677	mesh:D017250
umls:C1257915	mesh:D044483
umls:C0265274	omim:600972
umls:C1841679	omim:140000
umls:C0271690	omim:610549
umls:C1837154	omim:608902
umls:C0175683	mesh:D020159
umls:C2677294	omim:612201
umls:C0014324	mesh:D004749
umls:C2676759	omim:612304
umls:C1802395	omim:300590
umls:C0007795	mesh:D002549
umls:C0265216	omim:307000
umls:C1845117	omim:300584
umls:C0013261	mesh:D004370
umls:C1856127	omim:235555
umls:C0236969	mesh:D019966
umls:C1969106	omim:611490
umls:C1631597	omim:604772
umls:C1847902	omim:606482
umls:C0524909	mesh:D019694
umls:C0000771	mesh:D000014
umls:C1838647	omim:600105
umls:C1961102	mesh:D054198
umls:C0035579	mesh:D012279
umls:C1832187	omim:601543
umls:C1969562	omim:156200
umls:C1866422	omim:601718
umls:C0796139	omim:225000
umls:C1856716	omim:229070
umls:C3149931	omim:610644
umls:C0011311	mesh:D003715
umls:C1836823	omim:609057
umls:C1854414	omim:605316
umls:C0268263	mesh:D052517
umls:C1836336	omim:609311
umls:C1864389	omim:176430
umls:C0752282	mesh:D020914
umls:C0008479	mesh:D002813
umls:C0398625	mesh:D020151
umls:C0451641	mesh:D052878
umls:C0029106	mesh:D009889
umls:C0432122	omim:190440
umls:C1859598	omim:208920
umls:C1865870	omim:602092
umls:C1858051	omim:604901
umls:C0878683	omim:262600
umls:C0260662	mesh:D006311
umls:C1843942	omim:607417
umls:C1850635	omim:255960
umls:C0036503	mesh:D012626
umls:C0242666	mesh:D018455
umls:C0032269	mesh:D011008
umls:C1835564	omim:150250
umls:C1855466	omim:248190
umls:C0029463	mesh:D012516
umls:C1867403	omim:179010
umls:C0026919	mesh:D009165
umls:C1861678	omim:118210
umls:C0339512	omim:608051
umls:C2675861	omim:612526
umls:C0162666	mesh:D017237
umls:C0271287	omim:121800
umls:C1835931	omim:609889
umls:C0271650	mesh:D018149
umls:C0238111	omim:606369
umls:C0079588	mesh:D016114
umls:C0027831	mesh:D009456
umls:C1833736	omim:166260
umls:C0349788	mesh:D019571
umls:C0024776	mesh:D008375
umls:C1838601	omim:600138
umls:C1854442	omim:605289
umls:C0015814	mesh:D005271
umls:C1868114	omim:174500
umls:C1834674	omim:158810
umls:C0026706	mesh:D009084
umls:C0220721	omim:212500
umls:C0085207	mesh:D016640
umls:C0043124	mesh:D014901
umls:C1833511	omim:600649
umls:C0399378	omim:125500
umls:C0345407	omim:259730
umls:C0730295	omim:126700
umls:C0080024	mesh:D016116
umls:C0040053	mesh:D013927
umls:C0018523	mesh:D006211
umls:C1849678	omim:264470
umls:C1861481	omim:184840
umls:C1857747	omim:610217
umls:C1970163	omim:611131
umls:C1832440	omim:601349
umls:C1857776	omim:610198
umls:C1858142	omim:604777
umls:C0031347	mesh:D010610
umls:C0035222	mesh:D012128
umls:C0021361	mesh:D007247
umls:C1848599	omim:276950
umls:C0271583	omim:201400
umls:C0037773	mesh:D015419
umls:C0349535	omim:114900
umls:C0033785	mesh:D011542
umls:C0010246	mesh:D003384
umls:C1619700	omim:191830
umls:C0270855	omim:609304
umls:C1836876	omim:609049
umls:C1853396	omim:606353
umls:C1855346	omim:248900
umls:C0013902	mesh:D004612
umls:C0023241	mesh:D007877
umls:C1858712	omim:604187
umls:C0268621	omim:250850
umls:C1859062	omim:603830
umls:C1847626	omim:606705
umls:C1848336	omim:300009
umls:C0220994	mesh:D022124
umls:C1834460	omim:608758
umls:C0158252	omim:603932
umls:C0020428	mesh:D006929
umls:C0007120	mesh:D002282
umls:C1969623	omim:611431
umls:C1857720	omim:610628
umls:C0272066	omim:611881
umls:C1863204	omim:103285
umls:C0035309	mesh:D012164
umls:C2677877	omim:300770
umls:C0398739	omim:266265
umls:C0023892	mesh:D008105
umls:C0027022	mesh:D009196
umls:C1832926	omim:601001
umls:C1854380	omim:605355
umls:C0039292	mesh:D013631
umls:C1842550	omim:608099
umls:C1854106	omim:605637
umls:C1867299	omim:180105
umls:C1863198	omim:103470
umls:C0007959	mesh:D002607
umls:C0151786	mesh:D018908
umls:C0206366	mesh:D017887
umls:C0015967	mesh:D005334
umls:C2700405	omim:611584
umls:C0268609	omim:229100
umls:C0221013	mesh:D034721
umls:C0023418	mesh:D007938
umls:C1843004	omim:607823
umls:C0406587	omim:278250
umls:C0017689	mesh:D005935
umls:C1851504	omim:132900
umls:C0268448	omim:248250
umls:C0022665	mesh:D007680
umls:C0002888	mesh:D000749
umls:C0398791	mesh:D049932
umls:C0023904	mesh:D008114
umls:C0268553	mesh:D020167
umls:C1833021	omim:600965
umls:C1857355	omim:220111
umls:C0342683	omim:203290
umls:C1864997	omim:609628
umls:C1845052	omim:301200
umls:C1832828	omim:601071
umls:C0023015	mesh:D007806
umls:C0024301	mesh:D008224
umls:C0003811	mesh:D001145
umls:C0002514	mesh:D000592
umls:C2678338	omim:270970
umls:C0851578	mesh:D012893
umls:C0265339	omim:301900
umls:C1845055	omim:301040
umls:C1862511	omim:107970
umls:C0342801	omim:610460
umls:C0476254	mesh:D004410
umls:C0740340	mesh:D028226
umls:C1847640	omim:606693
umls:C1853251	omim:610244
umls:C0018816	mesh:D006343
umls:C0949691	mesh:D025242
umls:C1858108	omim:604804
umls:C0002170	mesh:D000505
umls:C0848558	mesh:D007021
umls:C1562894	omim:602082
umls:C0232981	omim:270960
umls:C0432230	omim:249700
umls:C0028326	mesh:D009634
umls:C0021845	mesh:D007416
umls:C1868679	omim:607624
umls:C0268631	omim:271980
umls:C0032461	mesh:D011086
umls:C1842247	omim:608320
umls:C0242852	mesh:D018630
umls:C0432292	omim:174810
umls:C1969655	omim:611369
umls:C1833236	omim:600858
umls:C0406735	omim:189500
umls:C1969057	omim:611553
umls:C1833921	omim:155240
umls:C0027794	mesh:D009436
umls:C1837618	omim:608644
umls:C1862112	omim:113000
umls:C0221032	mesh:D052497
umls:C2676723	omim:612347
umls:C0020544	mesh:D006977
umls:C0406578	omim:228600
umls:C1854182	omim:605543
umls:C1861922	mesh:D055036
umls:C0079487	mesh:D016481
umls:C1855008	omim:252011
umls:C0023890	mesh:D008103
umls:C0019250	omim:202400
umls:C0158683	omim:174050
umls:C0008029	mesh:D002636
umls:C0267663	omim:270420
umls:C0265202	omim:210600
umls:C1844696	omim:304120
umls:C0018054	mesh:D006061
umls:C1850362	omim:257270
umls:C0343111	omim:161000
umls:C1854520	omim:605249
umls:C1865270	omim:602522
umls:C1858726	omim:604168
umls:C2673914	omim:205950
umls:C1858154	omim:604765
umls:C0796154	omim:312870
umls:C1864840	omim:610505
umls:C0027404	mesh:D009290
umls:C1865596	omim:602398
umls:C2678061	omim:300695
umls:C0017661	mesh:D005922
umls:C1854310	omim:605389
umls:C0020255	mesh:D006849
umls:C0796003	omim:309580
umls:C0021171	mesh:D007184
umls:C0393576	mesh:D054546
umls:C0027706	mesh:D009394
umls:C0005586	mesh:D001714
umls:C1857041	omim:225280
umls:C0013274	mesh:D004374
umls:C1866636	omim:601596
umls:C1858084	omim:604841
umls:C0242383	mesh:D008268
umls:C0011269	mesh:D015140
umls:C1837549	omim:608681
umls:C2676235	omim:612444
umls:C0043008	mesh:D014849
umls:C0013595	mesh:D004485
umls:C1970440	omim:610947
umls:C1866426	omim:601705
umls:C0014511	mesh:D004814
umls:C1832525	omim:601287
umls:C2676832	omim:603933
umls:C1867005	omim:181400
umls:C0008325	mesh:D002764
umls:C1865366	omim:602459
umls:C1849386	omim:268200
umls:C1845118	omim:300582
umls:C0162534	mesh:D017096
umls:C1861063	omim:188890
umls:C1855102	omim:251110
umls:C0003130	mesh:D000860
umls:C1846784	omim:607101
umls:C1859311	omim:212550
umls:C0349639	mesh:D054429
umls:C1837028	omim:608971
umls:C0410174	omim:253800
umls:C0028860	mesh:D009800
umls:C1837187	omim:608895
umls:C0023264	mesh:D007888
umls:C1838062	omim:600512
umls:C1863512	omim:603813
umls:C1969799	omim:611291
umls:C1840364	omim:145650
umls:C0007193	mesh:D002311
umls:C1864178	omim:603147
umls:C1850554	omim:256050
umls:C0031117	mesh:D010523
umls:C0085084	mesh:D016472
umls:C0042065	mesh:D014565
umls:C1839259	mesh:D055534
umls:C0272340	omim:228960
umls:C1832388	omim:601399
umls:C0206656	mesh:D018233
umls:C0021390	mesh:D015212
umls:C0018991	mesh:D006429
umls:C1856883	omim:227300
umls:C1956097	mesh:D054877
umls:C0014170	mesh:D016889
umls:C1836173	omim:609446
umls:C0268575	omim:243500
umls:C1857941	omim:605041
umls:C1855081	omim:251200
umls:C0796124	omim:300004
umls:C1861385	omim:185800
umls:C0151744	mesh:D017202
umls:C1843323	omim:607636
umls:C0037315	mesh:D012891
umls:C1321551	omim:182212
umls:C0155299	omim:120430
umls:C1838263	omim:600316
umls:C0343057	omim:308800
umls:C1868111	omim:174700
umls:C0035229	mesh:D012131
umls:C1839885	omim:308930
umls:C2673193	omim:611777
umls:C0002896	mesh:D000756
umls:C1835933	omim:609887
umls:C1859486	omim:210370
umls:C0027051	mesh:D009203
umls:C1837122	omim:608930
umls:C0079772	mesh:D016399
umls:C2931746	omim:272300
umls:C0342727	omim:250950
umls:C2678051	omim:300699
umls:C2751773	omim:604273
umls:C2673536	omim:233650
umls:C1865974	omim:602014
umls:C0950121	mesh:D030321
umls:C2675014	omim:158330
umls:C0025239	mesh:D008557
umls:C1840452	omim:143200
umls:C0268165	omim:260000
umls:C0338508	mesh:D029241
umls:C0033300	mesh:D011371
umls:C0031099	mesh:D010518
umls:C1955870	mesh:D054221
umls:C0016382	mesh:D005483
umls:C0007682	mesh:D002493
umls:C0016719	mesh:D005621
umls:C1832585	omim:601238
umls:C2678493	omim:611809
umls:C1850000	omim:261500
umls:C1858674	omim:611277
umls:C2675210	omim:612657
umls:C0265306	omim:175700
umls:C0403825	omim:102530
umls:C1263846	mesh:D001289
umls:C0027663	mesh:D009378
umls:C0266313	omim:267430
umls:C1842839	omim:607903
umls:C1867981	omim:175900
umls:C0010674	mesh:D003550
umls:C0162557	mesh:D017114
umls:C0025202	mesh:D008545
umls:C1864002	omim:603358
umls:C0268418	omim:307030
umls:C2937421	mesh:D011470
umls:C0000744	mesh:D000012
umls:C0017923	mesh:D006011
umls:C0085413	mesh:D016891
umls:C0025149	mesh:D008527
umls:C1832827	omim:601072
umls:C0410529	omim:146000
umls:C1864869	omim:610445
umls:C0079541	mesh:D016142
umls:C0023795	mesh:D008065
umls:C2676771	omim:612291
umls:C2673923	omim:204650
umls:C2677903	omim:300749
umls:C0149940	mesh:D020426
umls:C0027868	mesh:D009468
umls:C0019158	mesh:D006505
umls:C0007965	mesh:D002609
umls:C1857316	omim:221770
umls:C0003463	mesh:D001005
umls:C1853223	omim:610265
umls:C0268136	omim:610651
umls:C1833503	omim:600652
umls:C0009398	mesh:D003117
umls:C0026705	mesh:D016532
umls:C0025294	mesh:D008585
umls:C1858805	omim:604117
umls:C0027439	mesh:D009303
umls:C0038874	mesh:D015173
umls:C2751532	omim:605911
umls:C0432252	omim:259770
umls:C0085397	mesh:D016871
umls:C1857277	omim:222448
umls:C2677338	omim:612158
umls:C0027809	mesh:D009442
umls:C0022951	mesh:D007787
umls:C0023467	mesh:D015470
umls:C0206663	mesh:D018242
umls:C1866282	omim:601780
umls:C0008780	mesh:D002925
umls:C1855128	omim:250940
umls:C1838103	omim:600462
umls:C0023003	mesh:D015826
umls:C1850792	omim:254300
umls:C1835912	omim:610333
umls:C1847352	omim:606854
umls:C2678194	omim:300243
umls:C2936904	omim:300000
umls:C1857777	omim:610193
umls:C0019163	mesh:D006509
umls:C0013221	mesh:D004362
umls:C0162359	mesh:D053358
umls:C0342784	omim:201475
umls:C0023743	mesh:D008039
umls:C0271582	omim:228300
umls:C0432291	omim:248370
umls:C1833518	omim:608836
umls:C0836924	mesh:D013922
umls:C1838644	omim:600110
umls:C0028945	mesh:D009837
umls:C1837065	omim:608957
umls:C1833053	omim:600955
umls:C0220664	omim:113200
umls:C1832550	omim:601277
umls:C1847730	omim:606657
umls:C1859972	omim:202300
umls:C0020595	mesh:D006994
umls:C0016508	mesh:D005532
umls:C1291329	omim:606003
umls:C1280798	omim:177820
umls:C0028433	mesh:D009669
umls:C1853926	omim:605820
umls:C0000889	mesh:D000052
umls:C1849128	omim:270700
umls:C0016395	mesh:D005489
umls:C0175702	mesh:D018980
umls:C1850155	omim:259600
umls:C0028768	mesh:D009771
umls:C0015393	mesh:D005124
umls:C0013720	mesh:D004535
umls:C1846174	omim:300210
umls:C1837471	omim:608751
umls:C0020551	mesh:D006981
umls:C0034345	mesh:D015325
umls:C0085390	mesh:D016864
umls:C1836706	omim:609152
umls:C1836573	omim:609227
umls:C1855607	omim:245150
umls:C0220710	omim:201450
umls:C1836027	omim:609533
umls:C0751870	mesh:D020271
umls:C1834846	omim:157640
umls:C2749872	omim:611942
umls:C0268126	omim:103050
umls:C1836255	omim:609404
umls:C1855465	omim:248200
umls:C0027651	mesh:D009369
umls:C0949664	mesh:D024801
umls:C1838564	omim:600155
umls:C0751748	mesh:D020158
umls:C0021368	mesh:D007249
umls:C2675520	omim:612555
umls:C0011156	mesh:D003677
umls:C0342549	omim:176410
umls:C0027832	mesh:D016518
umls:C2677637	omim:600101
umls:C1857854	omim:609734
umls:C1853124	omim:610725
umls:C1842160	omim:608358
umls:C1849472	omim:266200
umls:C1843225	omim:607684
umls:C0154251	mesh:D052439
umls:C1847501	omim:606777
umls:C1837396	omim:608799
umls:C1845105	omim:300604
umls:C0524582	mesh:D050336
umls:C0024314	mesh:D008232
umls:C0042974	mesh:D014842
umls:C1833219	omim:600882
umls:C0030360	mesh:D010214
umls:C1852406	omim:123790
umls:C1970827	omim:300661
umls:C0023473	mesh:D015464
umls:C1855565	omim:245348
umls:C1860823	omim:190351
umls:C0265264	omim:142900
umls:C0008525	mesh:D015794
umls:C0033847	mesh:D011561
umls:C0002066	mesh:D000474
umls:C0020877	mesh:D007079
umls:C0003119	mesh:D000853
umls:C0035828	mesh:D029597
umls:C0268275	mesh:D049290
umls:C0206711	mesh:D018296
umls:C1853286	omim:609820
umls:C0242339	mesh:D050171
umls:C0013264	mesh:D020388
umls:C0007131	mesh:D002289
umls:C0220748	omim:250250
umls:C0206704	mesh:D018287
umls:C0024117	mesh:D029424
umls:C0018920	mesh:D006392
umls:C0221036	omim:201100
umls:C0006267	mesh:D001987
umls:C0005942	mesh:D001849
umls:C1843366	omim:607625
umls:C1846431	omim:607326
umls:C1843256	omim:607676
umls:C0406702	mesh:D053360
umls:C1837713	omim:608629
umls:C0033578	mesh:D011471
umls:C1327916	omim:268130
umls:C0011616	mesh:D003877
umls:C1865951	omim:602032
umls:C0242216	mesh:D042882
umls:C0041834	mesh:D004890
umls:C1846055	omim:300263
umls:C0342282	omim:186500
umls:C0039978	mesh:D013896
umls:C1854146	omim:605594
umls:C1861864	omim:115195
umls:C0028960	mesh:D009845
umls:C1853116	omim:610743
umls:C0265336	omim:148210
umls:C0036572	mesh:D012640
umls:C0038587	mesh:D013375
umls:C0039144	mesh:D013595
umls:C0023827	mesh:D008080
umls:C1868570	omim:169100
umls:C0007273	mesh:D002340
umls:C1832992	omim:600971
umls:C3151513	omim:251880
umls:C0023487	mesh:D015473
umls:C0030319	mesh:D016584
umls:C0391816	omim:103500
umls:C0206064	mesh:D017566
umls:C0017758	mesh:D005955
umls:C2678473	omim:611884
umls:C1854467	omim:605280
umls:C0029422	mesh:D010009
umls:C0406775	omim:127400
umls:C1859844	omim:204100
umls:C0079299	omim:131900
umls:C1832600	omim:601214
umls:C1848488	omim:277610
umls:C1291245	omim:604931
umls:C1864912	omim:610006
umls:C1864721	omim:610092
umls:C0036344	mesh:D012560
umls:C0020619	mesh:D007006
umls:C0019829	mesh:D006689
umls:C0206754	mesh:D018358
umls:C0005859	mesh:D001816
umls:C1276035	omim:208150
umls:C1843096	omim:607778
umls:C1847667	omim:606685
umls:C1869114	omim:277600
umls:C1863769	omim:603528
umls:C0031269	mesh:D010580
umls:C1136249	mesh:D038901
umls:C1720965	mesh:D053359
umls:C0472813	omim:307200
umls:C1845837	omim:300367
umls:C2677500	omim:612109
umls:C1264041	omim:277480
umls:C0268344	omim:229200
umls:C0796022	omim:309520
umls:C0342645	omim:241530
umls:C0346010	omim:135150
umls:C1850386	omim:256850
umls:C0342788	omim:212140
umls:C1848030	omim:606407
umls:C0175693	omim:180860
umls:C0220767	omim:304110
umls:C0016751	omim:229600
umls:C0796028	omim:301835
umls:C0265215	omim:249000
umls:C0265344	omim:246200
umls:C0015523	omim:612416
umls:C0796037	omim:212720
umls:C0796232	omim:605039
umls:C0265233	omim:219000
umls:C0342286	omim:241080
umls:C1857728	omim:610618
umls:C1970173	omim:611126
umls:C0342907	omim:210250
umls:C1970431	omim:610954
umls:C0268425	omim:203800
umls:C1856728	omim:228930
umls:C0265961	omim:133200
umls:C0342418	omim:241800
umls:C0175695	omim:117550
umls:C1833104	omim:606176
umls:C1856113	omim:235730
umls:C0271829	omim:274600
umls:C1848519	omim:277580
umls:C0031190	omim:265380
umls:C1832409	omim:601378
umls:C0268293	omim:610600
umls:C0029411	omim:259100
umls:C1959620	omim:274270
umls:C0221043	omim:177200
umls:C0011854	omim:612227
umls:C0003076	omim:106210
umls:C1846796	omim:607095
umls:C0085580	omim:145500
umls:C2678492	omim:611812
umls:C0029410	omim:612400
umls:C0751951	omim:117000
umls:C1844830	omim:303400
umls:C0162568	omim:177000
umls:C0268179	omim:223000
umls:C1328840	omim:601859
umls:C1275081	omim:115150
umls:C0265221	omim:236670
umls:C0406811	omim:179850
umls:C1275078	omim:201000
umls:C0016788	omim:230000
umls:C0574083	omim:302060
umls:C0162531	omim:121300
umls:C0341106	omim:610247
umls:C0403553	omim:266900
umls:C0220989	omim:608709
umls:C1832661	omim:601186
umls:C0341306	omim:251850
umls:C0265343	omim:277300
umls:C2676500	omim:612359
umls:C0026691	omim:611775
umls:C1850106	omim:259775
umls:C0796068	omim:164280
umls:C1850040	omim:260660
umls:C2676454	omim:612391
umls:C0546966	omim:158000
umls:C0795864	omim:182290
umls:C0221348	omim:153300
umls:C1842884	omim:607864
umls:C0265962	omim:256500
umls:C0265261	omim:265000
umls:C0265287	omim:231050
umls:C1850100	omim:260300
umls:C1868594	omim:168605
umls:C0238402	omim:265800
umls:C0220769	omim:305450
umls:C0268579	omim:606054
umls:C0392475	omim:269000
umls:C0265354	omim:214800
umls:C0587248	omim:218040
