1
10
100
1000
10000
10001
10002
100049587
10006
10007
10009
1001
10010
100101267
10011
100129271
10013
100130086
100131997
100132285
100133941
100134230
100134934
10014
10015
10016
10017
10018
100188893
10019
1002
10020
10021
10023
10024
10025
10026
100272147
100287932
100294276
1003
100316904
10036
10038
10039
1004
10040
10042
10043
10044
10045
10048
10049
1005
100506079
100506658
100507436
100507442
100507703
10051
10052
10053
10054
10055
10056
10058
10059
1006
10060
10062
10063
10066
10067
10068
10069
1007
10072
10073
10075
10076
10078
1008
10081
10083
10084
10085
10087
1009
10090
10092
10093
10094
10095
10096
10097
10099
101
1010
10103
10105
10106
10109
10110
10111
10112
10113
10114
10116
1012
10120
10121
10123
10124
10125
10126
10127
10128
1013
10130
10131
10133
10134
10135
10137
10138
10139
1014
10140
10142
10144
10146
10147
10148
10152
10153
10154
10155
10156
10158
10159
1016
10163
10164
10165
10168
10169
1017
10174
10179
1018
10180
10181
10188
10189
1019
10190
10193
10196
10197
10198
10199
102
1020
10200
10202
10203
10204
10206
10207
10208
10209
1021
10210
10211
10212
10213
10214
10215
10216
10217
10219
1022
10220
10221
10225
10226
10228
10231
10232
10233
10235
10236
10238
10239
1024
10240
10241
10243
10244
10245
10247
10248
10249
1025
10250
10252
10253
10254
10256
1026
10260
10262
10263
10265
10266
10267
10268
1027
10270
10272
10273
10274
10276
10277
10278
1028
10280
10282
10283
10284
10285
10286
10287
10288
10289
1029
10291
10293
10294
10295
10296
10297
10298
10299
103
1030
10300
10302
10307
10309
1031
10313
10314
10316
10318
10319
1032
10320
10321
10324
10325
10326
10327
10328
1033
10330
10332
10333
10335
10336
10342
10344
10345
10346
10350
10360
10362
10363
10365
10367
10368
10369
10370
10371
10376
10379
10381
10382
10383
10389
1039
10391
103910
10392
10393
10395
10397
10398
10399
10401
10403
10406
1041
10410
10411
10413
10418
10419
10420
10421
10422
10423
10425
10426
10427
10428
10430
10432
10434
10435
10436
10438
10439
1044
10440
10443
10444
10445
10449
1045
10450
10451
10452
10454
10455
10456
10457
10458
10459
1046
10460
10461
10463
10464
10465
10466
10467
10468
10469
1047
10471
10472
10473
10474
10475
10476
10477
10478
10479
1048
10480
10481
10482
10483
10484
10485
10486
10487
10488
10489
10490
10491
10492
10493
10494
10495
10497
10498
10499
105
1050
10505
10507
1051
10512
10513
10514
10516
10518
10519
1052
10520
10521
10522
10523
10524
10525
10526
10527
10528
10529
1053
10531
10533
10534
10537
10538
10539
1054
10540
10541
10542
10544
10549
10550
10551
10552
10553
10556
10557
10558
1056
10562
10563
10564
10565
10566
10567
10569
10570
10572
10573
10574
10575
10576
10577
10579
1058
10580
10581
10585
10587
10588
10589
1059
10590
10592
10594
10598
1060
10600
10602
10603
10605
10606
10607
10608
10609
10610
10611
10612
10614
10615
10616
10617
10618
1062
10620
10621
10623
10625
10626
10627
10628
10629
1063
10630
10632
10635
10636
10640
10642
10643
10644
10645
10647
10648
10651
10652
10653
10656
10657
10658
10659
1066
10661
10663
10664
10666
10667
10668
10670
10671
10672
10673
10675
10677
10678
1068
10681
10682
10686
10687
1069
10691
10692
10694
107
1070
1071
10713
10714
10716
10717
10718
1072
10724
10725
10726
10728
1073
10730
10732
10733
10735
10736
10741
10742
10743
10745
10746
10747
10749
1075
10750
10752
10755
10758
10762
10763
10765
10766
10768
10769
10771
10772
10773
10775
10776
10780
10782
10783
10785
10787
10788
10793
10794
10799
108
1080
10801
10802
10803
10804
10806
10807
10808
1081
10810
10811
10813
10814
10815
10817
10818
1082
10825
1084
10841
10842
10844
10845
10846
10847
10848
10849
10850
10856
10857
10859
10863
10865
10868
10869
10870
10874
10877
10878
10879
1088
10881
10885
10886
10890
10891
10892
10893
10897
10898
10899
109
10900
10902
10903
10905
10906
10907
10908
10910
10911
10912
10913
10914
10915
10916
10919
10920
10921
10922
10923
10924
10926
10927
10928
10929
10930
10933
10935
10938
10939
10940
10942
10943
10944
10945
10946
10949
10950
10951
10952
10953
10954
10956
10957
10959
10961
10963
10969
10970
10971
10972
10973
10975
10978
10979
10980
10981
10982
10983
10985
10987
10988
10989
10991
10992
10994
10998
11001
11004
11005
11006
11007
11009
1101
11011
11016
11017
11018
1102
11020
11021
11025
11026
1103
11030
11031
11033
11034
11035
11036
1104
11040
11043
11045
11047
1105
11051
11052
11055
11059
1106
11060
11061
11062
11063
11064
11065
11066
11067
11068
11069
1107
11072
11073
11074
11075
11076
11077
11078
11079
1108
11080
11082
11083
11086
11091
11092
11093
11096
11097
11098
11099
111
11100
11101
11102
11103
11104
11108
1111
11112
11113
11116
11117
1112
11120
11122
11123
11124
11127
11128
11129
1113
11130
11133
11135
11137
11138
1114
11140
11141
11142
11143
11144
11145
11146
11147
11151
11152
11153
11154
11155
11156
11157
11158
11161
11162
11164
11165
11167
11168
11170
11171
11176
11177
11178
11179
11180
11183
11184
11186
11187
11188
11189
1119
11190
11193
11194
11196
11198
112
11200
11201
1121
11213
11214
11215
11216
11217
11218
11219
1122
11221
11222
11224
11226
11227
11228
1123
11230
11231
11232
11234
11235
11236
112398
112399
1124
112401
11243
11244
112464
112476
11248
112483
11249
11250
11252
11255
112574
11258
11259
11260
11261
11262
11264
11266
11267
11269
112714
11272
11273
11274
11275
112755
11276
11277
112770
11278
11279
1128
112812
11282
11284
112840
112858
112869
1129
112936
112939
112942
112950
113
1130
113026
113091
1131
11311
11313
113130
11315
11316
113174
11319
1132
11321
11325
11326
113263
11328
11329
1133
11330
11331
11332
11333
11334
11335
11336
11337
11338
11339
1134
11340
11342
11343
11344
11345
11346
1135
1136
113655
113675
1137
1138
113878
1139
114
1140
114034
114049
114088
1141
114131
114132
114294
1143
114327
1144
1145
114548
114569
114571
1146
114609
114625
1147
114769
114780
114781
114784
114785
114790
114791
114793
114799
114803
114804
114805
114815
114822
114823
114825
114836
114879
114880
114882
114883
114884
114885
114897
1149
114907
114908
114928
114932
114990
115024
115106
115123
1152
115201
115265
115290
115294
1153
115352
1154
115416
115426
1155
115509
115557
115572
115650
115677
115703
115704
115708
115727
115761
1158
115817
115827
1159
115950
115992
116
1160
116028
116071
116085
116092
1161
116113
116138
116154
116225
1163
116349
116369
116379
1164
116443
116444
116449
116461
116540
116840
116844
116931
116966
116983
116985
116986
116987
116988
117
117143
117144
117145
117154
117156
117157
117159
117166
117177
117178
117194
117246
117247
117248
1173
1174
1175
117579
117581
117583
117584
1176
117854
1179
118
1182
1183
1184
118424
118426
118427
118429
118460
118471
1186
118738
118788
118924
118932
119
1191
1192
1193
119392
1195
119504
119559
119587
1196
1198
12
120
1200
1201
1203
1207
1208
1209
1211
1212
121268
121278
1213
121441
121457
1215
121506
121512
121536
121549
121642
122011
122042
122553
122769
122786
122809
122876
122953
123
1230
123016
123169
1232
123228
1233
1234
1235
1236
1237
1238
123811
123920
1240
124044
124056
124093
1241
124220
124245
1244
124401
124402
124404
124460
124540
124590
124739
124790
124801
124857
124912
124925
124930
124995
125150
125170
125228
125476
1258
1259
125950
125997
1260
126003
126014
126070
126133
126272
126282
1263
126308
126326
126328
126353
126382
126393
1264
1265
1266
126669
1267
1268
126823
1269
126917
126961
1270
127002
1271
1272
127254
127262
127343
127544
1277
127703
127733
1278
127833
127933
128
1280
1281
128178
1282
128229
128239
128240
128312
1284
128434
1285
1286
1287
128710
1288
128853
128866
128869
1289
1290
129080
1291
1292
1293
1294
1295
129521
129531
129563
1296
129685
1297
1298
129807
129831
129852
129868
129880
1299
1300
130013
1301
1302
130399
130497
1305
130507
130540
130557
130589
130617
1307
1308
130872
130916
130940
130951
131034
1311
131118
1312
1314
131408
131450
131474
1315
131578
1316
131890
132158
132320
1325
1326
132660
132671
1327
132884
1329
132954
133
133396
133418
133522
133619
1337
133746
133957
134
1340
134218
134266
134353
134359
134391
134430
1345
134510
134549
1347
134728
1349
134957
135
1350
135112
135228
135250
135458
1356
135927
135932
136
1360
1361
136227
13627
1363
136319
1364
1365
1366
1368
1369
1370
1373
137392
1374
137492
137735
1378
137868
137886
137964
1380
138046
138065
1381
1382
138311
1384
138428
138429
138474
1385
1386
1387
1388
1390
139105
1392
1393
139324
1394
139422
1395
139596
1396
1397
139716
1398
1399
14
1400
1401
140290
1404
140432
140459
140460
140461
140462
140465
140545
140576
140597
1406
140609
140628
140689
140690
140691
1407
140710
140735
140739
140767
1408
140803
140807
140825
140885
140890
1409
140901
141
1410
1411
1412
1413
1414
1415
1417
142
1420
142678
142679
142680
142689
142891
1429
143
143098
1431
143187
1432
143241
143379
1434
143425
1435
1436
143630
143684
143689
1437
1438
1439
1440
1441
144100
144125
144165
1442
144245
144347
1445
1446
1447
144715
144717
1448
144983
1452
145258
145270
1453
1454
145483
1455
145553
1456
1457
1459
145957
146
1460
146057
146059
1462
146225
1463
1464
146433
1465
1466
146691
146712
146722
146760
1468
146845
146849
146956
147
147011
147040
1471
147179
1473
147339
147381
147495
1475
1476
147664
147686
147687
1477
147700
1478
147841
147872
1479
147912
147945
148
148022
148066
148156
148170
1482
148206
148223
148281
148423
1485
148581
1486
1487
1488
1489
1490
149233
1493
149371
149420
149428
149465
149473
149483
1495
1496
149840
1499
149951
149986
15
150
1500
150084
150094
1501
150209
150274
1503
150368
150372
150472
150483
150572
1506
150678
150684
150726
150771
1508
1509
150921
150946
151
1510
151050
1511
151112
151188
1512
151230
151246
151254
151295
1513
1514
151449
151516
151531
151613
151636
151648
151742
151871
151888
151903
151987
152
1520
152006
152015
152137
152138
152185
152189
1523
1524
1525
152503
152579
152687
1527
152789
1528
152831
153
153090
153241
153443
1535
153527
1536
1537
153733
153769
154
1540
154043
154075
1543
154313
1544
154796
154810
154865
155
155382
155435
155465
1557
1558
1559
156
1562
157
1571
157285
157310
157313
157574
1576
157638
157680
157773
1579
157922
158
1583
158358
158399
1584
158471
1585
1586
158787
158798
1588
158800
158931
159
159090
159195
159296
1595
159989
16
160
1600
1601
160140
1602
1603
1604
1605
1606
160622
160851
1609
161
1610
161003
1611
161176
1612
1613
1615
161582
1616
1617
161742
1618
161835
161882
162
1620
1621
1622
162239
162333
162417
162655
162681
162699
1627
1628
1629
162966
162989
163
1630
163050
163051
163081
163087
163126
1633
1634
1635
163590
1636
163702
163732
163786
1638
163859
163882
1639
164
1641
164127
1642
1643
164312
1644
1645
164592
164656
1647
164832
1649
165
1650
1653
165324
1654
1655
165530
1656
1659
165904
165918
166
1660
1662
1663
166336
1665
1666
166647
1667
166785
1668
166824
1670
1672
167227
1673
1674
1675
1676
1677
1678
167826
167838
168374
168417
168433
168451
168544
168620
168667
1687
1690
169522
169792
169966
170082
170261
170384
170463
170482
170506
170589
170591
170622
170680
170685
170825
170850
170954
170961
171017
171023
171024
171177
171392
171546
171568
1718
1719
1725
1727
1728
1729
1730
1731
1734
1736
1737
1738
1739
174
1740
1741
1742
1743
1745
1746
1747
1748
1749
175
1755
1756
1758
1759
1760
1761
1762
177
1773
1775
1777
1778
178
1780
1781
1783
1785
1786
1787
1788
1789
1791
1793
1794
1795
1796
1797
18
1800
1801
1803
1804
1805
1807
1808
1809
181
1810
1811
1812
1813
1814
1815
1816
1819
182
1820
1821
1822
1823
1824
1825
1826
1827
1828
1829
183
1830
1831
1832
1837
1838
1839
1840
1843
1844
1845
1846
1847
1848
1849
185
1852
1854
1855
1856
1857
1859
186
1861
1869
187
1870
1871
1874
1875
1876
1877
1879
1880
1889
189
1890
1891
1892
1893
1894
1896
19
190
1901
1902
1903
1906
1907
1908
1909
191
1910
1911
1912
1915
1917
192111
192669
192670
192683
1933
1936
1937
1938
1939
1942
1943
1944
1945
1946
1947
1948
1949
1950
1951
1952
1953
1954
1956
1958
1959
196
1961
1962
196374
196383
1964
196403
196441
196472
196477
196483
1965
196513
196528
1967
1968
1969
197
197131
197257
197259
1973
197370
1974
1975
1977
1978
1979
1981
1982
1983
1984
199
1990
1991
1992
1993
1994
1995
1996
1997
199720
199731
199745
199777
1998
1999
2
20
2000
200081
2001
200186
2002
2004
2005
200504
200523
200539
200558
200576
2006
200734
200845
2009
200916
200931
200933
200958
2010
2011
201161
201176
201254
201266
201292
201294
2013
2014
201456
201514
201516
201562
201595
2016
201626
2017
201798
2018
201895
2019
201965
202
2020
20202
2021
2022
2023
202333
202559
2026
2027
2028
2029
203
2030
203068
203069
203259
203260
2033
2034
203447
2035
203522
2036
2037
2038
2039
204
2040
2041
2042
2043
2044
204474
2045
2046
2047
2048
204851
2049
2050
2051
2053
2054
2056
2057
205717
2058
2059
2060
2063
2064
2065
2066
2067
2068
2069
207
2070
2071
2072
2073
2074
2077
2078
2079
208
2081
2091
2098
2099
2100
2101
2103
2104
2107
2108
2109
211
2113
2114
2115
2117
2118
2119
212
2120
2122
2125
213
2130
2131
2132
2134
2137
2138
2139
214
2140
2145
2146
2147
2149
215
2150
2151
2152
2153
2155
2157
2158
2159
216
2160
2161
2162
21648
2165
2167
2168
217
2170
2171
2175
2176
2177
2178
2181
2184
2185
2186
2187
2188
2189
2191
2192
219287
2193
219333
2194
2195
219541
2196
219699
2197
219738
219743
219771
219790
219844
2199
219988
22
2200
220082
2201
220108
220134
220136
220164
2202
220213
2203
220388
2204
220441
2205
2206
2207
2208
220869
2209
220965
220972
220988
221
221016
221037
221061
221079
221092
221150
221154
221184
2212
221264
2213
221302
2214
221400
221458
2215
221504
221527
221656
221662
221687
221692
2217
221830
221833
221895
2219
221914
221935
221937
221955
221981
2220
222068
2222
222229
222255
222389
2224
222484
222546
222584
222643
222658
222663
222894
223
2230
223082
2232
2235
2237
2239
224
2241
2242
2243
2244
2245
2246
2247
2248
2249
225
2250
2251
2252
2253
2254
2255
225689
2257
2258
226
2260
2261
2262
2263
2264
2266
2268
2271
2272
2273
2274
2275
2277
22794
22795
22796
22797
22798
2280
22800
22801
22803
22806
22807
22808
22809
2281
22818
22820
22821
22822
22823
22824
22826
22827
22828
22832
22834
22836
22837
22839
22841
22843
22850
22852
22853
22854
22858
22859
2286
22861
22863
22864
22866
22869
2287
22870
22871
22872
22873
22874
22877
22879
2288
22880
22881
22882
22883
22884
22885
22887
22888
22889
2289
22890
22891
22893
22894
22895
22897
22898
22899
229
2290
22900
22902
22903
22905
22906
22907
22908
22909
22911
22913
22914
22915
22916
22918
22919
22920
22924
22925
22926
22927
22929
22930
22931
22933
22934
22936
22937
22938
22941
22943
22944
22948
2295
22950
22953
22954
22955
2296
22974
22976
22977
22978
22980
22981
22982
22983
22984
22985
22986
22989
22990
22992
22994
22995
22998
22999
23
230
2300
23001
23002
23005
23012
23013
23014
23016
23017
23019
2302
23020
23022
23024
23025
23026
23028
23030
23031
23032
23034
23035
23037
23038
23039
2304
23040
23042
23043
23047
23048
23049
2305
23051
23053
23054
23059
23060
23061
23062
23063
23064
23065
23066
23067
2307
23070
23071
23072
23075
23076
23077
23078
2308
23081
23082
23085
23086
23087
23089
2309
23090
23091
23092
23093
23094
23095
23097
23098
23099
231
23101
23107
23108
23109
23111
23112
23113
23114
23116
23118
23119
2312
23122
23125
23126
23129
2313
23130
23131
23132
23133
23136
23137
23138
23139
2314
23140
23141
23142
23145
23149
2315
23150
23152
23154
23157
2316
23160
23161
23162
23163
23164
23165
23166
23168
2317
23170
23172
23173
23174
23176
23179
2318
23181
23184
23185
23186
23189
2319
23190
23191
23192
23193
23195
23196
23197
23199
23203
23204
23207
23208
23209
2321
23211
23212
23214
23215
23216
23219
2322
23223
23224
23225
23228
23229
2323
23230
23231
23233
23234
23235
23236
23237
23239
2324
23241
23242
23243
23244
23246
23247
23248
23253
23254
23255
23256
23258
2326
23262
23263
23264
23265
23266
23268
23269
23270
23271
23272
23275
23276
23277
23279
23281
23283
23284
23285
23286
23287
23291
23293
23294
23295
23299
23300
23301
23303
23304
23305
23308
23309
2331
23310
23312
23313
23314
23316
23318
2332
23321
23325
23326
23327
23328
23331
23332
23335
23336
23338
23339
2334
23345
23348
2335
23350
23352
23353
23354
23355
23358
23360
23362
23363
23365
23367
23368
23369
23370
23371
23373
23376
23378
23379
23380
23381
23382
23384
23385
23386
23387
23389
2339
23390
23394
23396
23397
23400
23401
23403
23404
23405
23406
23410
23411
23412
23413
23414
23418
2342
23420
23421
23423
23424
23426
23428
23429
23431
23433
23435
23446
23450
23451
23462
23463
23466
23467
23468
23469
23471
23473
23474
23475
23476
23478
2348
23480
23481
23483
23484
23492
23493
23495
23498
23499
23500
23504
23505
23506
23509
23510
23511
23512
23513
23515
23517
23518
23520
23521
23522
23523
23524
23529
2353
23532
23533
23534
23539
2354
23541
23542
23543
23545
23548
23549
2355
23551
23552
23554
23555
23557
23558
23559
23560
23564
23566
23567
23568
23569
2357
23576
2358
23580
23581
23582
23583
23585
23586
23587
23588
23589
23592
23593
23594
23595
23598
23601
23603
23604
23607
23608
23609
23613
23616
23617
23620
23621
23623
23624
23627
23633
23635
23636
23637
23640
23641
23643
23644
23645
23646
23647
23648
23649
23650
23654
23657
23658
23659
23660
23670
23673
23677
23678
23682
23683
23704
23705
23708
23710
23741
23746
23753
23759
23760
23761
23762
23764
23765
23767
23768
23769
23770
23774
23779
23780
23786
23787
23788
238
239
2395
24
240
241
24137
24138
24140
24142
24144
24145
24148
242
244
2444
245711
245806
245812
246175
246184
246243
246329
246330
246778
2475
248
2483
2488
249
2491
2492
2494
2495
25
250
251
2512
2515
2516
2517
2520
2521
2523
2526
252839
252884
2529
252969
252983
252995
253143
2532
253260
2533
2534
253461
2535
253635
2537
253714
253725
253738
2538
2539
253959
253980
254065
254170
254173
2547
2548
254827
254863
254887
2549
2550
255061
2551
2553
2554
255426
255488
2555
2556
255626
2557
255738
255743
255758
255877
2559
255928
255967
2560
2561
2562
256281
256297
2563
256364
2565
2566
256643
2567
256714
2569
256933
2570
2571
2572
257218
257313
257364
257397
25758
25759
257629
25763
25764
25766
25776
25777
25780
25782
25788
25791
25792
25793
25796
25798
25799
2580
25801
258010
25802
25803
25804
25805
25813
25814
25816
25818
25820
25824
25825
25827
25828
25831
25832
25833
25836
25837
25839
2584
25841
25842
25843
25844
25847
25852
25853
25855
25861
25862
25865
2587
25870
25871
25873
25874
25875
25876
2588
25884
25885
25886
25888
2589
25890
25894
25897
25898
259
2590
25900
25902
25904
25909
25911
25913
25915
25917
259173
259197
2592
25920
259215
259217
259230
25924
25925
25926
259266
25927
25928
259282
25929
25930
25932
25934
25936
25937
25940
25941
25942
25945
25946
25949
25950
25953
25957
25959
2596
25960
25962
25963
2597
25970
25975
25976
25977
25978
25979
25980
25984
25987
25988
25994
25998
25999
26
26001
26003
26009
26012
26013
26015
26017
26019
26020
26024
26031
26033
26034
26036
26037
26039
26040
260425
26043
26046
26047
26052
26054
26056
26057
26058
26059
26060
26061
26064
26065
26071
26073
26085
26086
26088
26091
26092
26093
26094
26097
26100
26108
26118
26119
26121
26122
26127
26128
26130
26133
26135
26136
26137
26140
26145
26146
26147
26148
26150
26151
26152
26153
26155
26156
26160
26168
2617
261726
26173
261734
2619
26190
26191
2620
26205
26206
26207
2621
26224
26225
26227
26228
2623
26230
26232
26233
26234
26235
2624
26240
26249
2625
26251
26254
26256
26258
26259
2626
26260
26263
26268
26269
2627
26270
26271
26272
26273
26275
26276
26277
26278
26286
26287
26289
2629
26291
26292
26297
2631
2632
2633
26330
2634
2635
26353
26354
26355
2638
2639
2641
2642
2643
2644
2645
2646
26469
2647
26471
26472
2648
2649
2650
26502
26505
26508
26511
26512
26515
26517
26519
2652
26520
26523
26524
26525
26528
2653
26548
26574
26575
26576
26578
26580
26585
26586
2660
26608
2661
26610
2664
2665
266743
266747
2668
266812
2669
267
2670
267012
2671
2672
2673
2674
26747
2675
26750
26751
2676
26762
2677
2678
268
2683
2686
2688
2689
269
2690
2691
2692
2693
2694
2695
26953
26958
26959
2696
26960
2697
26973
26984
26985
26986
26993
26994
26995
26999
27
270
2700
27000
27005
27012
27018
27019
2702
27022
2703
27030
27031
27032
27033
27034
27035
27036
27037
27040
27042
27043
27044
2705
2706
27063
27065
27067
2707
27071
27072
27076
27077
27079
27085
27086
27089
27095
27097
27101
27102
27107
27109
27111
27113
27120
27122
27123
27125
27127
27128
27129
27130
27131
27132
27133
27134
27141
27145
27148
27151
27153
27154
27156
27158
27161
27165
2717
27173
27175
27178
27183
27185
2719
27190
2720
27202
27229
27230
27231
27232
27236
27238
27240
27241
27242
27243
27244
27245
27246
27247
27250
27252
27253
27254
27255
27257
27258
27283
27286
27287
27288
27289
27292
27295
27297
273
27301
27304
27306
27309
2731
27314
27316
27327
27329
2733
27330
27332
27333
27335
27336
27338
27339
2734
27340
27342
27343
27344
27347
27348
27349
2735
27350
27352
2736
2737
274
2740
2742
27429
2743
27430
27434
27436
2744
27440
27443
27445
2745
2746
2747
2752
276
2760
2764
2767
2768
2769
2770
2771
2773
2774
2775
2776
2778
2779
2780
2781
2782
2783
2784
2785
2786
2787
2788
279
2790
2791
2792
2793
2794
2796
2798
2799
280
2800
2801
2802
2803
2804
2805
2806
280636
2810
2812
2813
2814
2815
2817
2819
2820
2821
2822
28227
2823
28232
2824
2825
2826
282616
282617
282618
282809
282890
2829
282974
282991
283
2831
283149
2832
283208
283212
283234
283248
2833
283337
283349
283373
2834
283455
283489
283629
283638
2837
283742
283820
283869
283899
283987
283989
284
2840
284001
284004
284058
284086
284114
284119
284131
284217
284307
284312
284358
284403
284615
284677
284680
284695
2847
284723
2848
2849
285
285025
28511
28512
28513
28514
285141
285190
285220
285343
285362
285381
285464
285489
285527
285590
285596
285613
285753
286
286053
286075
286077
2861
2862
286204
286262
286343
2864
286451
2865
286514
2867
2868
286826
286827
2869
287
2870
2872
2873
2874
2875
2876
2879
288
2882
2885
2886
2887
2888
2889
2890
2891
2892
2893
2894
2895
28951
28952
28954
28955
28956
2896
28962
28964
28965
28966
2897
28970
28973
28976
28977
2898
28984
28985
28986
28987
28988
28989
2899
28991
28992
28996
29
290
2900
2901
2902
29028
2903
2904
2905
29057
29058
2906
29062
29066
29068
29070
29071
29072
29074
29078
29079
2908
29080
29082
29085
29086
29088
29089
2909
29091
29098
291
29101
29102
29105
29106
29107
29108
29109
2911
29110
29115
29116
29117
29119
2912
29121
29123
29124
29126
29127
29128
2913
2914
2915
2916
2917
2918
2919
292
2920
2921
2922
2923
2925
2928
293
2931
2932
2934
2935
2936
2937
2938
2939
2944
2946
2947
2948
2950
2954
2956
2957
2958
2959
2960
2961
2962
2963
2965
2966
2967
2968
2969
2971
2972
2975
2976
29760
29761
29763
29766
29767
2977
29775
29777
2978
29780
29789
2979
29796
2980
29802
2981
2982
2983
2984
29841
29842
29843
29844
29851
29855
2986
2987
29882
29883
29886
29888
29889
29890
29893
29894
29896
29899
2990
29903
29904
29907
29911
29915
2992
29920
29922
29924
29925
29926
29927
29928
29934
29935
2994
29941
29945
29946
29947
29949
2995
29950
29952
29953
29954
29956
29959
29966
29967
29968
29969
2997
29970
29974
29978
29979
29982
29984
29986
29990
29991
29992
29993
29994
29995
29997
29998
30
3000
30000
30001
30008
30009
3001
30010
30011
30012
3002
3005
3006
30061
30062
3007
3008
3009
301
3012
3013
3014
3015
3017
3018
302
3020
3024
3026
3028
3029
3030
3032
3033
3035
3039
3043
3046
3048
3050
3053
3054
3055
3059
306
3060
3061
3062
3064
3065
3066
3068
3069
307
3070
3073
3074
3075
3077
3078
308
3081
30811
30812
30815
30816
30818
30819
3082
30820
30827
3083
30834
30835
30836
30837
3084
30845
30846
30849
30850
30851
3087
309
3090
3091
3092
3093
3094
3096
30968
3097
3098
3099
31
310
3101
3104
3105
3106
3107
3108
3109
311
3111
3112
3113
3115
3117
3118
3119
312
3122
3123
3125
3126
3127
3131
3133
3134
3135
3141
3145
3146
3148
3149
3150
3151
3155
3156
3159
316
3161
3162
3163
3164
3167
3169
317
3170
3171
3172
3174
3175
317649
317762
317772
3178
3181
3182
3183
3184
3185
3187
3188
3189
319
3190
3191
3192
3195
3196
3198
3199
32
320
3200
3202
3204
3205
3206
3207
3208
3209
321
3211
3212
3213
3214
3216
3217
3218
3219
322
3221
3224
3225
3226
3227
3229
323
3231
3232
3233
3235
3236
3237
3238
3239
324
3240
3241
3249
325
3250
3251
3257
326
3265
3266
326624
326625
3267
3268
327
3270
3273
3274
3275
3276
328
3280
3281
329
3291
3293
3295
3297
3298
3299
330
3300
3301
3303
3305
3306
3308
3309
331
3310
3312
3313
3315
3316
332
3320
3326
3329
333
3336
3337
3338
3339
333926
334
3346
3347
335
3350
3351
3352
3355
3356
3357
3358
3359
336
3360
3362
3363
3364
3371
3375
3376
337867
338
3382
3383
338322
3384
3385
338567
3386
338692
338785
338917
339
339175
339201
339230
339287
339344
339390
3394
339403
339448
339451
339487
3396
3397
3398
339855
3399
339965
339967
34
3400
340205
340273
340543
340719
341
3416
3417
3418
3419
3420
3421
342184
3423
342371
3425
342510
342574
3426
342667
3428
342897
3429
3430
343069
3431
3433
3434
343521
3437
3439
344
3440
344148
3442
3445
344558
3454
3455
3456
3458
3459
3460
346007
346288
346389
346562
3467
347
347240
3475
3476
347733
347862
3479
347902
348
3480
3481
348158
3482
348235
3483
3484
348487
3485
3486
3487
3488
3489
348980
348995
3490
3491
349667
350
3508
351
3512
3516
353
353091
353116
353355
353376
353497
354
3543
3547
3549
355
3550
3551
3552
3553
3554
3556
3557
3558
3559
356
3560
3561
3562
3563
3565
3566
3567
3568
3569
357
3570
3572
3574
3575
3576
3577
3578
3579
358
3581
3586
3587
3588
3589
3590
3592
3593
3594
3595
3596
3597
359787
3598
359845
359948
36
360
3600
3601
3603
3604
3605
3606
3607
3608
3609
361
3611
3612
3613
3615
3619
362
3620
3621
3622
3623
3624
3625
3626
3627
3628
3630
3631
3632
3633
3635
3636
3638
3640
3642
3643
3645
3646
3651
3652
3654
3655
3656
3658
3659
3660
3661
3662
3663
3664
3665
3667
367
3670
3672
3673
3674
3675
3676
3678
3679
3680
3681
3682
3683
3684
3685
3687
3688
3689
369
3690
3691
3692
3693
3694
3695
3696
3697
3698
3699
37
3700
3702
3703
3705
3706
3707
3708
3709
3710
3713
3714
3716
3717
3718
372
3720
3725
3726
3727
3728
373
3730
373156
3732
3735
373509
3736
3737
3738
3739
374
3741
374291
3744
374403
374454
3745
3746
374618
374654
374659
374928
375
3750
375056
3751
3752
3753
3754
375449
375484
3755
3756
375686
3757
375748
375790
3758
3759
3760
3761
3762
376267
3763
3764
3765
3766
3767
3768
377
3772
3773
3775
377630
3777
3778
3779
378
3780
3781
378108
3783
3784
3785
3786
378708
378884
379
3790
3791
3792
3796
3797
3798
3799
38
3800
3801
3802
3803
3804
3805
3806
3809
381
3811
3812
3813
3814
3815
3816
3817
3818
382
3820
3821
3822
3823
3824
3827
383
3831
3832
3833
3835
3836
3837
3838
3839
384
3840
3841
3842
3843
3845
3848
3849
3850
3852
3853
3854
3855
3856
3857
3858
3860
3861
3866
386618
386724
3868
387
387082
387119
3872
387332
387338
3875
387680
387755
387893
387923
388
3880
3881
3882
388324
3884
3885
388531
388552
388585
388646
388677
388697
3887
389
3890
389015
389058
3891
389396
389421
3895
389692
3897
3898
389856
389874
3899
389941
39
390
3902
3903
3906
3908
3909
391
3910
3911
391104
3912
3913
3914
3915
3916
3918
392
3920
3921
392255
3925
3927
392862
3929
393
3930
3931
3932
3933
3934
3936
3937
3938
3939
394
3945
3949
3952
3953
3954
3955
3956
3957
3958
3959
396
3960
3963
3964
397
3972
3973
3975
3976
3977
3978
398
3980
3981
3982
3983
3984
3985
3987
399
3990
3991
3993
3996
399664
399687
399694
3998
399979
40
400
4000
4001
400224
4004
4005
400569
400673
4007
400745
4008
4009
400961
401
4010
401145
4012
4014
4015
401505
4016
4017
4018
402
4023
4026
403
4033
4034
4035
4036
4037
4038
4040
404093
4041
4043
4045
404550
4046
404636
404672
404734
4048
4049
405
4050
4052
4053
4054
4055
4056
4057
4058
4059
406
4060
4061
4062
4063
4064
4066
4067
4068
4069
407
4071
4072
4074
4076
4077
408
408050
4082
4084
4085
4086
4087
4088
4089
409
4090
4091
4092
4093
4094
4097
4099
41
410
4100
4102
4103
4110
4111
4115
4116
412
4122
4123
4125
4128
4130
4131
4133
4134
4135
4137
4139
4140
414059
414060
414061
4141
414157
4142
414301
4144
4145
4146
4147
4148
4149
415
4150
415116
4152
4153
4155
4157
4158
4159
416
4160
4161
4162
4163
4168
417
4170
4171
4172
4173
4174
4175
4176
4179
4184
4185
4188
4189
4190
4191
4192
4193
4194
4200
4201
4204
4205
4207
4208
4209
421
4210
4211
4212
4214
4215
4216
4217
4218
4221
4222
4223
4224
4225
4233
4234
4236
4237
4239
4240
4241
4242
4245
4246
4250
4253
4254
4255
4256
4257
4258
4259
4261
4267
427
4277
4281
4282
4283
4284
4286
4287
4288
4289
429
4291
4292
4293
4294
4295
4296
4297
4298
4299
43
430
4300
4301
4302
4303
4306
4311
4312
4313
4314
4316
4317
4318
4319
432
4320
4321
4322
4323
4324
4325
4326
4329
433
4330
4331
4332
4335
4338
434
4340
4342
4345
435
4350
4352
4353
4354
4355
4356
4357
4359
4360
4361
439
440
440068
440145
440193
440275
440295
440498
440515
4430
4435
4436
4437
4438
4439
444
4440
445
445571
4478
4481
4485
4486
4487
4488
4489
4494
4495
4496
4502
4504
4507
4508
4509
4512
4513
4514
4515
4519
4520
4522
4524
4528
4534
4535
4536
4537
4538
4539
4540
4541
4542
4543
4544
4547
4548
4552
4580
4582
4583
4585
4588
4589
4591
4593
4594
4595
4597
4598
4599
4601
4602
4603
4604
4605
4606
4607
4608
4609
4610
4613
4615
4616
4617
4618
4619
462
4620
4622
4625
4627
4628
4629
463
4632
4633
4634
4637
4638
4640
4641
4642
4643
4644
4645
4646
4647
4649
4650
4651
4653
4654
4656
4659
466
4660
4661
4664
4665
4666
4668
467
4670
4671
4673
4674
4676
4677
4678
468
4680
4681
4682
4683
4684
4685
4686
4688
4689
4690
4691
4692
4693
4694
4695
4697
4698
47
4700
4701
4702
4703
4704
4705
4707
4709
471
4711
4712
4713
4714
4715
4716
4718
4719
472
4720
4722
4723
4724
4725
4726
4728
4729
473
4731
4733
4734
4735
4736
4738
4739
474
4741
474354
4744
4745
4747
475
4750
4751
4752
4753
4756
4758
476
4760
4761
4762
4763
477
4771
4772
4773
4774
4775
4776
4778
4779
478
4780
4781
4782
4783
4784
4790
4791
4792
4793
4794
4795
4796
4798
4799
4800
4801
4802
4803
4804
4807
4808
4809
481
4811
4817
482
4820
4821
4824
4828
4829
483
4830
4831
4832
4833
4835
4836
4839
4841
4842
4843
4846
4848
4849
4850
4851
4852
4853
4854
4855
4856
4857
486
4860
4862
4863
4864
4867
4868
4869
487
4878
4879
488
4880
4881
4882
4883
4884
4885
4886
4887
4889
489
4892
4893
4897
4898
4899
49
490
4900
4901
4902
4904
4905
4907
4908
4909
491
4913
4914
4915
4916
4917
4920
4921
4922
4923
4924
4925
4926
4927
4928
4929
493
4931
4935
493829
493861
494115
4942
4943
494470
494514
4946
4947
4951
4952
4953
4956
4957
496
4967
4968
4969
497189
4973
4974
4975
4976
4978
498
4982
4983
4985
49854
49855
49856
4986
4987
4988
4990
4991
4994
4998
4999
50
5000
5001
5004
5007
5008
5009
501
5010
5013
5015
5016
5017
5019
5020
5021
5023
5024
5025
5027
5028
5029
5033
5034
503542
5036
5037
5045
5046
5047
5048
50484
50488
5049
5050
50506
50507
50509
50511
50512
5052
5053
5054
5055
5058
506
50604
50615
50616
50617
50618
50619
5062
50624
50626
50628
5063
50632
50649
50650
5066
5068
5069
5071
50717
5073
5074
5075
5076
5077
5079
5080
50804
50805
50807
50809
5081
50810
50813
5082
5083
50846
50848
50852
50855
50856
50859
50861
50862
5087
5089
509
5090
5091
5092
5093
50937
5094
50943
50944
5095
5096
5097
5098
5099
51
5100
51001
51002
51003
51004
51008
51009
51010
51013
51014
51016
51018
51019
51021
51022
51024
51025
51028
51031
51035
5104
51042
51043
51046
51052
51053
51056
51058
51059
51061
51065
51067
51068
51069
51070
51072
51073
51074
51076
51078
51079
5108
51081
51082
51083
51085
51086
51088
51094
51096
51099
51100
51102
51103
51105
51106
51107
51108
51109
5111
51111
51115
51116
51119
51122
51123
51124
51125
51127
51132
51133
51135
51136
51138
51141
51142
51143
51147
51150
51154
51155
51156
51157
5116
51160
51162
51164
51168
51171
51172
51176
51177
5118
51181
51182
51184
51185
51186
51187
5119
51191
51193
51194
51195
51196
51199
51200
51201
51202
51203
51204
51205
51206
51207
51209
5121
5122
51222
51224
51225
51226
51227
51230
51231
51232
51236
51237
51244
51246
51247
51248
5125
51250
51252
51255
51256
51257
51259
5126
51260
51263
51266
51268
5127
51272
51274
51278
51279
5128
51280
51282
51283
51284
51285
51286
5129
51290
51291
51295
51297
51298
513
5130
51304
51305
51306
51307
51311
51316
51317
51319
5132
51322
51324
51327
51329
5133
51330
51332
51335
51337
5134
51340
51341
51343
51347
5136
51360
51361
51362
51363
51364
51365
51366
51367
51371
51374
51375
51377
51378
5138
51382
51386
51388
51389
51393
51397
51399
5140
51400
5141
51412
5142
51421
51422
51426
51427
51428
51429
51433
51434
5144
51440
51442
51444
51447
51449
5145
51450
51451
51454
51455
51460
51465
51466
5147
51474
51475
51477
51479
5148
5149
51490
51495
51497
51499
515
51503
51504
51510
51512
51513
51514
51517
5152
51520
51522
51523
51527
51528
51529
51530
51531
51534
51535
51538
5154
51545
51547
51548
5155
51550
51552
51554
51555
51559
5156
51560
51561
51562
51564
51566
51567
51569
51573
51574
51575
5158
51582
51585
51586
51588
5159
51592
51593
51594
51596
51599
5160
51601
51602
51604
51605
51606
51608
5161
51614
51616
51617
51619
5162
51621
51626
5163
51631
51633
51637
51639
5164
51645
51647
5165
51650
51651
51652
51654
51655
51657
51659
5166
51660
51661
51663
51665
51666
51667
51668
51669
5167
51673
51676
51678
51684
51686
5169
51690
51691
51692
51693
51699
5170
51700
51701
51705
51706
51710
51714
51719
51720
51726
51727
51729
5173
51735
51738
5174
51741
51742
51744
51747
5175
51751
51752
51754
51755
51759
5176
51760
51762
51763
51764
51765
51773
51776
51778
5178
51780
518
51804
51806
51807
51808
5184
5187
5189
5190
5191
5192
5193
5194
5195
5196
5198
5199
52
5201
5202
5203
5204
5207
5208
521
5211
5213
5214
5216
5217
5218
522
5223
5224
5226
5228
5229
523
5230
5236
5239
5241
5243
5244
5245
525
5250
5251
5252
5255
5256
5257
526
5260
5261
5264
5265
5266
5267
5268
5269
527
5270
5271
5272
5274
5275
5276
5277
5279
528
5281
5283
5284
5286
5287
5289
529
5290
5291
5292
5293
5294
5295
5296
5297
5298
53
5300
5303
5304
5305
5306
5307
5308
5309
5310
5311
5313
5314
5315
5316
5317
5318
5319
5320
5321
5322
5324
5325
5326
5327
5328
5329
5330
5331
5332
5333
53335
53339
53340
53343
53347
5335
53353
53358
5336
5337
53371
5338
5339
534
5340
53405
53407
5341
5345
5346
5347
5348
5349
535
5350
5351
5352
5354
5355
5356
5358
5359
5360
5361
53615
53616
5362
53632
53635
53637
5364
5365
5366
5367
5368
537
5371
5372
5376
5378
538
53822
53826
53829
53832
53833
53834
53840
539
53904
53905
53916
53918
53919
5393
53938
5394
53944
5395
5396
53981
54
540
54014
54020
54033
54039
54058
54059
5406
54069
5408
54084
54101
54102
54106
54107
54108
5411
5413
5414
541468
54148
54149
54165
54187
5420
54205
54206
54209
54210
54212
5422
54221
5423
5424
5425
5426
5427
5428
5429
5430
5431
5432
5433
54331
5434
54344
54345
5435
5436
54361
5437
5438
54386
5439
5440
54407
5441
54413
54414
5442
5443
54431
54433
54434
5444
54440
54442
54443
5445
54453
54455
54457
54458
54460
54461
54462
54464
54467
54468
54469
5447
54471
54472
54474
54475
54476
54477
54478
54487
5449
54495
54496
545
5450
54505
54507
5451
54510
54512
54514
54518
5452
54520
54521
5453
54532
54535
54536
54537
54538
54539
5454
54540
54541
54542
54543
54544
54545
54546
5455
54550
54552
54554
54555
54556
54557
5456
54567
5457
5458
54583
54584
54587
54596
546
5460
54602
54606
54617
54620
54622
54623
54625
5464
5465
54663
54665
5467
54675
5468
54680
54681
5469
547
5470
54700
54704
54708
54715
54726
54729
5473
54737
54739
54749
5475
54751
54756
5476
54760
54763
54764
54766
54776
54778
5478
54780
5479
54790
54796
54797
5480
54800
54801
54802
5481
54810
54812
54814
54815
54819
54820
54821
54822
54825
54826
54830
54836
54840
54843
54850
54855
54857
54859
54861
54862
54865
54867
54868
54869
54870
54872
54873
54874
54876
54878
54880
54881
54882
54883
54888
54891
54892
54893
54894
54900
54902
54903
54904
54906
54908
54910
54913
54915
54919
54920
54921
54922
54923
54925
54926
54927
54929
5493
54930
54931
54932
54933
54934
54935
54936
54937
54938
54939
5494
54940
54941
54946
54948
54949
5495
54951
54954
54957
54958
54959
5496
54961
54962
54963
54965
54968
54969
54971
54972
54973
54974
54976
54977
54978
5498
54984
54985
54987
54989
5499
54994
54997
54998
55
550
5500
55002
55003
55004
55008
5501
55011
55012
55013
55014
55017
5502
55022
55023
55024
55026
55030
55031
55035
55036
55037
55038
5504
55040
55041
55048
55049
55052
55054
55055
5506
55062
55068
5507
55070
55072
55075
55081
55083
55084
55088
5509
55090
55092
55093
55095
551
5510
55100
55103
55107
55108
55109
5511
55110
55111
55112
55114
55116
55119
55120
55122
55124
55125
55127
55128
55130
55131
55133
55135
55139
5514
55140
55142
55143
55144
55145
55146
55147
55148
55149
5515
55157
55159
5516
55160
55161
55164
55165
55166
55167
55170
55171
55174
55175
55176
55177
55178
5518
55182
55183
55184
55186
55187
55188
5519
55191
55193
55196
55198
55199
552
5520
55201
55207
55209
5521
55210
55211
55212
55215
55219
5522
55223
55224
55225
55226
55227
55229
5523
55230
55231
55233
55234
55236
5524
55240
55243
55246
55249
5525
55250
55252
55256
55257
55258
5526
55262
55266
55268
55269
5527
55272
55274
55275
5528
55280
55284
55285
55288
552889
5529
55290
55291
55293
55294
55295
55297
55299
553
5530
55300
55308
5531
553115
55312
55319
5532
55320
55321
55322
55323
55324
55325
55327
55328
55329
5533
55330
55331
55333
55336
55339
5534
55342
55346
5535
55352
55353
55355
5536
55361
55367
5537
55374
55379
5538
55388
5539
554
5540
55422
55423
55432
55435
55437
5545
55450
5546
55466
5547
55471
5549
5550
55502
55503
55504
55505
55509
5551
55512
5552
55521
55527
5553
55531
55534
55536
5554
55540
55544
55552
55553
55559
55561
55565
55568
5557
55571
55572
55576
55577
55578
5558
55585
55588
55589
55591
55593
55596
55599
55600
55602
55603
55604
55605
55607
55611
55612
55613
55614
55616
55617
55619
5562
55620
55621
55622
55625
55626
55627
55628
55629
5563
55632
55636
55638
5564
55643
55644
55646
5565
55651
55655
55656
55658
5566
55660
55661
55662
55663
55664
55665
55666
55669
5567
55670
55671
55677
55679
5568
55680
55681
55683
55684
5569
55690
55691
55692
55696
55697
55698
55699
5570
55700
55701
55703
55704
55705
55706
55707
55709
5571
55713
55714
55715
55716
55717
55718
55719
55720
55722
55723
55726
55728
55729
5573
55734
55737
55738
55740
55741
55742
55743
55746
55748
55749
5575
55750
55752
55755
55756
55757
55758
55759
5576
55761
55763
55768
55769
5577
55770
55775
55777
55778
5578
55785
55787
5579
55791
55793
55794
55795
55798
558
5580
55800
55802
55803
55805
55806
55809
5581
55811
55813
55814
55815
55816
55818
55819
5582
55823
55824
55825
55827
55829
5583
55832
55833
55835
55837
55839
5584
55840
55843
55844
55845
55846
55847
55848
5585
55850
55851
55856
55857
55859
5586
55860
55861
55867
55869
5587
55870
55872
55879
5588
55884
55885
55888
5589
55890
55892
55894
55898
5590
55902
55904
55905
55906
55907
55909
5591
55914
55915
55916
55917
5592
55920
55922
55929
5593
55930
55937
5594
5595
55957
55958
5596
55964
55966
55967
55968
5597
55970
55971
55973
55974
5598
5599
55998
5600
56000
56001
56005
5601
5602
5603
56034
5604
5605
5606
5607
5608
5609
5610
5611
5612
5613
56137
56138
56139
56140
56141
56142
56143
56144
56145
56146
56147
56159
56160
56163
56164
56165
5617
5618
5619
56204
5621
5623
5624
56242
56243
56252
56254
56255
56256
56257
56259
5626
56265
56267
5627
56271
56288
5629
563
5630
56301
56302
5631
56311
5634
56341
56342
5635
5636
5639
5641
5644
5645
5646
56474
56477
56478
56479
5648
5649
5650
5651
5652
56521
5653
5654
56547
5655
5657
566
5660
56605
56616
5662
56623
5663
5664
56647
56648
56652
56654
56655
56658
56666
56667
56672
56673
56674
56676
56681
5669
567
5670
56704
5671
56729
5673
56751
5678
5681
5682
56829
5683
5684
56848
5685
56850
56851
56852
56853
5686
5687
5688
56882
56886
5689
56893
56895
56896
56897
56899
5690
56901
56902
56904
56905
56906
5691
56911
56915
56917
56919
5692
56922
56923
56924
56925
56926
56927
56928
56929
5693
56937
56938
5694
56940
56943
56944
56945
56946
56949
5695
56950
56951
56952
56955
56956
56957
5696
56961
56963
5697
56970
56977
5698
56984
5699
56990
56992
56993
56995
56996
56997
56998
570
5700
57002
57003
57007
5701
57010
57016
57017
57018
57019
5702
57030
57035
57037
5704
57045
57048
5705
57050
57054
57057
5706
57060
57062
5707
5708
57082
57085
57088
5709
57092
57095
57096
57097
57099
571
5710
57104
57109
5711
57111
57113
57118
57120
57122
57125
57126
57129
5713
57132
57134
57135
57136
5714
57142
57143
57144
57147
57148
5715
57154
57158
57159
5716
57161
57162
57169
5717
57175
57176
57178
57179
5718
57180
57186
57187
5719
57190
57192
572
5720
5721
57214
57215
57216
57222
57223
5724
5725
5727
5728
57282
5729
57292
573
5730
5731
5732
57325
57326
5733
57332
57333
57336
57338
5737
57379
5738
57381
5739
57396
57402
57403
57404
57405
57409
5741
57410
57418
5742
5743
5744
57447
57448
5745
57453
57455
57459
5746
57461
57463
57464
57466
5747
57470
57471
57472
57473
57474
57484
57486
57488
57489
57491
57492
57496
57498
575
57502
57504
57505
57506
57509
57510
57511
57512
57513
57514
57515
57520
57521
57522
57523
57524
5753
57530
57531
57532
57534
57535
57536
57540
57541
57542
57546
57549
57551
57552
57553
57554
57555
57556
57559
5756
57560
57561
57562
57563
5757
57571
57574
57576
57578
57579
57580
57584
57585
57586
57587
57591
57592
57594
57595
57596
57597
57599
576
57602
57605
57609
57610
57617
57619
57620
57621
57622
57626
57628
5763
57630
57634
5764
57642
57644
57645
57646
57647
57649
57650
57658
57662
57663
57664
57670
57673
57679
5768
57680
57685
57688
57689
57690
57692
57693
57695
57697
57698
577
5770
57701
57703
57706
57707
57708
5771
57715
57716
57718
57719
57724
57727
57731
57732
5774
5775
57758
57761
57763
5777
5778
57786
57787
57794
57798
57799
578
5780
57801
57804
57805
5781
57817
57819
5782
57820
57821
57822
57823
57827
57829
5783
5784
5786
57862
57863
5787
5788
5789
5790
5791
5792
5793
5794
5795
5796
5797
5798
5799
58
580
5800
5801
5802
5803
5805
5806
581
5810
5813
5814
58155
58157
58160
5817
5818
5819
58190
58191
582
5822
5824
5825
5826
5827
5828
5829
583
5830
5832
5833
5834
5836
5837
58473
58475
58476
58477
58478
58480
58484
58486
58487
58490
58494
58497
58499
585
58500
58503
58506
58508
58509
58512
58513
58516
58517
58525
58526
58528
58529
58533
58538
5859
586
5860
5861
5862
5863
5864
5865
5866
5867
5868
5869
5870
5871
5872
5873
5874
5875
5876
5877
5878
5879
5880
5881
5883
5884
5885
5886
5887
5888
5889
5890
5891
5892
5893
5894
5896
5897
5898
58985
5899
59
590
5900
5901
5902
5903
5905
5906
59067
5908
59082
5909
5910
5911
5912
5913
5914
5915
5916
5917
5920
5921
5922
5923
5925
5926
59269
5927
59271
59272
59274
59277
5928
59286
5929
593
5930
59307
5931
5932
5933
59335
59338
59339
5934
59340
59341
59343
59345
59348
59349
5935
59350
5936
5937
5939
594
5940
5947
5948
5949
595
5950
5954
5955
5956
5957
5959
596
5961
5962
5965
5966
5967
5968
597
5970
5971
5972
5973
5976
5977
5978
5979
598
5980
5981
5982
5983
5984
5985
5987
5989
599
5990
5991
5992
5993
5994
5995
5996
5997
5998
5999
60
6000
6001
6002
6003
6004
6005
6009
6010
6011
6013
6014
6015
6016
6017
6018
6019
602
60312
60313
60314
6035
6036
60385
6039
604
60401
6041
60412
60436
6045
6046
60468
6047
6048
60482
60485
60487
60488
60489
6049
60490
60491
60492
60493
60496
605
6050
6051
60528
60529
60561
6059
60592
60598
60625
60626
60676
60681
60682
60684
60685
607
608
6091
6092
6093
6094
6095
6096
6097
6098
610
6100
6101
6102
6103
6117
6118
6119
6120
6121
6122
6123
6124
6125
6128
6129
613
6130
6132
6133
6134
6135
6136
6137
6138
6139
6141
6142
6143
6144
6146
6147
6150
6152
6154
6155
6156
6157
6158
6159
6160
6164
6165
6166
6167
6168
6169
617
6171
6173
6175
6176
6181
6182
6183
6184
6185
6187
6188
6189
6191
6193
6194
6195
6196
6197
6198
6199
6201
6202
6203
6204
6205
6206
6207
6208
6209
6210
6217
6218
6222
6223
6224
6227
6228
6229
623
6230
6231
6232
6233
6234
6235
6236
6237
6238
6239
624
6240
6241
6242
6249
6251
6252
6253
6256
6257
6258
6259
6261
6262
6263
627
6271
6272
6273
6275
6276
6277
6278
6279
6280
6281
6282
6283
6284
6285
6286
6288
629
6291
6293
6294
6295
6296
6297
6299
6300
6301
6303
63035
6304
6305
6307
631
6310
6311
6314
6317
6318
6319
632
6320
6323
6324
6326
6327
6328
6329
633
6330
6331
6334
6336
6337
6338
6339
634
6340
6342
6343
6344
6346
6347
6348
6349
635
6351
6352
6354
6355
6356
6357
6358
6359
636
6360
6361
6362
6363
6364
6366
6367
6368
6369
637
6370
6372
6373
6374
6375
6376
638
6382
63826
63827
6383
6385
6386
6387
63875
63876
6388
6389
63891
63893
63894
63897
63898
639
6390
63908
6391
63915
63916
63917
6392
63922
63925
63926
63928
63929
63931
63935
63940
63941
63943
63946
63948
6396
63967
6397
63970
63971
63973
63974
63976
63978
6398
6399
640
6400
64005
6401
6402
6403
6404
6405
6406
64061
6407
64072
64081
64083
64091
64092
64096
64098
641
64100
64105
64106
64109
64111
64112
64115
64121
64127
64129
64130
64137
6414
64145
64151
6416
64170
64175
6418
642
64207
6421
64210
64215
64216
64218
64219
6422
64223
64225
6423
64240
64241
6426
6427
6428
64283
64284
64285
64288
6429
643
6430
6431
64318
6432
64320
64321
64324
64326
64328
64332
64333
6434
64342
64343
64344
64359
643641
64374
64375
64376
64386
643866
64388
6439
64395
64397
64398
64399
64400
64403
64407
6441
644150
64419
6442
64420
64421
64422
64423
64425
64426
64429
6443
64430
64431
64434
6444
6445
6446
6447
6448
644890
6449
645
6450
64506
6452
6453
6455
6456
6457
64582
64599
646
64601
6461
6462
6464
64641
646480
6468
64682
64689
6469
64699
6470
64708
64710
64714
6472
6473
6474
64743
64745
64746
64750
64753
64754
64756
64759
6476
64761
64762
64764
64769
6477
64770
64772
64773
64776
64777
6478
64780
64783
64784
64787
64795
64798
648
6480
64800
64805
64806
6483
64837
6484
64840
64843
64844
64847
64848
64850
64852
64854
64855
64856
64857
64858
64866
6487
64895
649
6491
64919
6492
64926
6493
6494
64943
64946
64949
6495
6496
64960
64963
64965
64968
6497
64975
64976
64978
64979
6498
6499
650
6500
65005
65010
65018
6502
6503
6504
6505
65055
65056
65057
65059
6506
65062
6507
65078
6508
65080
65082
65083
6509
65095
651
6510
65108
65109
6511
65110
65117
65123
65124
65125
6513
6514
6515
6517
6519
652
6520
6521
6522
65220
6523
6525
65250
6526
65264
65265
65266
65267
65268
6529
652991
653
6530
6531
653121
6532
653361
6535
653509
6536
653784
653808
6539
654
6543
6546
6547
6548
6549
655
6550
6553
6557
6558
6559
656
6560
6564
6565
6566
6567
6568
6569
657
6571
6576
6578
6579
658
6580
6581
6582
6583
6584
6585
6586
6588
659
6590
6594
6595
6596
6597
65975
65979
6598
65982
65988
65989
6599
65990
65991
65993
65997
65999
660
66005
66008
6601
6602
6603
66036
66037
6604
6605
6606
6608
6609
661
6610
6611
6612
6613
6614
6615
6616
6617
6618
6619
662
6620
6621
6622
6623
6624
6625
6626
6627
6628
6629
663
6631
6632
6633
6634
6635
6636
6637
6638
664
6640
6641
6642
6643
6645
6647
6648
6649
665
6651
6652
6653
6654
6655
6656
6657
6658
6659
666
6660
6662
6663
6664
6665
6667
6668
667
6670
6671
6672
6674
6676
6678
668
6683
6687
6688
6689
669
6690
6692
6693
6695
6696
6697
6698
6699
6700
6701
6703
6704
6707
6708
6709
671
6710
6711
6712
6713
6714
6717
672
6720
6721
6722
6723
6726
6727
6728
6729
673
6730
6731
6732
6733
6734
6736
6737
6738
6741
6742
6744
6745
6746
6747
6748
6749
675
6750
6751
6752
6753
6754
6755
6756
6757
6758
6759
676
6760
6764
6767
6768
6769
677
6770
6772
6773
6774
6775
6776
6777
6778
6779
678
6780
6782
6783
6786
6788
6789
6790
6792
6794
6795
6801
6804
6809
6810
6811
6812
6813
6814
6815
682
6820
6827
6829
683
6830
6832
6833
6835
6837
6838
6839
6840
6843
6844
6845
6846
6847
685
6850
6853
6854
6855
6856
6857
686
6860
6861
6863
6865
6866
6867
6868
6869
687
6870
6871
6872
6873
6874
6875
6876
6877
6878
6879
688
6880
6881
6882
6883
6884
6885
6886
6887
6888
689
6890
6891
6892
6894
6895
6897
6898
6900
6901
6902
6903
6904
6905
6906
6907
6908
6909
6910
6915
6917
6919
6921
6923
6924
6925
6926
6927
6928
6929
6932
6934
6935
6936
6938
694
6940
6941
6942
6943
6944
6945
6947
6948
6949
695
6950
6953
6954
696
6988
699
6990
6992
6993
6996
6997
6999
70
7001
7003
7004
7005
7006
7008
7009
701
7010
7011
7013
7014
7015
7016
7018
7019
7020
7021
7022
7023
7024
7025
7026
7027
7029
7030
7031
7035
7036
7037
7038
7039
7040
7041
7042
7043
7044
7045
7046
7048
7049
705
7050
7051
7052
7053
7054
7056
7057
7058
7059
706
7064
7066
7067
7068
7070
7071
7072
7073
7074
7075
7076
7077
7078
7079
708
7080
7082
7083
7086
7087
7088
7089
7090
7091
7092
7094
7095
7096
7097
7098
7099
71
710
7100
7102
7105
7106
7108
7110
7111
7112
7114
712
7122
7123
7124
7125
7126
7128
713
7130
7132
7133
7134
7135
7136
7137
7138
7139
714
7140
7141
7142
7143
7145
7148
715
7150
7153
7155
7156
7157
7158
7159
716
7161
7162
7163
7164
7165
7166
7167
7168
7169
717
7170
7171
7173
7175
7177
7178
718
7181
7182
7184
7185
7186
7187
7188
7189
719
72
720
7200
7201
7203
7204
7205
721
7216
722
7220
7222
7223
7224
7225
7226
7227
7247
7248
7249
725
7251
7252
7253
7257
7258
7259
726
7263
7265
7266
7267
727
7270
7272
7273
7275
7276
7277
7278
727800
727851
727897
728
7280
728116
7283
728369
7284
7286
728642
7287
7288
729
7290
7291
7292
729230
729238
7293
729330
7294
729475
7295
7296
7297
7299
729967
729991
730
7301
7305
7306
7307
731
7311
7314
7316
7317
7318
7319
732
7320
7321
7322
7323
7324
7325
7326
7327
7328
7329
733
7332
7334
7335
7336
7337
7341
7342
7343
7345
7347
7348
7349
735
7350
7351
7352
7353
7355
7356
7357
7358
7360
7364
7369
7372
7373
7374
7375
7376
7378
7379
738
7380
7381
7384
7385
7386
7388
7389
7390
7391
7392
7398
7399
7402
7403
7404
7405
7407
7408
7409
741
7410
7411
7412
7414
7415
7416
7417
7419
7421
7422
7423
7424
7425
7428
7429
7430
7431
7432
7433
7434
7436
7439
744
7441
7442
7443
7444
7447
7448
7450
7453
7454
7456
7458
7461
7462
7464
7465
7466
7468
7469
7471
7472
7473
7474
7475
7476
7477
7482
7485
7486
7490
7494
7498
7504
7507
7508
7511
7514
7515
7516
7517
7518
752
7520
7525
7528
7529
7531
7532
7533
7534
7535
7536
7538
7539
754
7541
7542
7544
7545
7546
7547
7551
7553
7554
7555
7556
7565
7566
7568
7571
7572
7579
758
7580
7581
7582
7584
7589
7592
7593
7594
7597
760
762
7621
7625
7629
7644
765
767
7675
7678
768
7681
768211
7692
7695
770
7700
7701
7703
7704
7705
7706
7707
7709
771
7711
7718
7726
7727
7728
773
7737
7738
774
7745
7746
7748
775
7750
7752
7753
7755
7756
776
7763
7769
777
7770
7773
7775
778
7781
7783
7784
7786
7789
779
7791
7799
780
7802
7803
7804
7805
7809
7812
7813
7818
782
7827
783
7832
7837
784
7840
7841
7844
7846
7849
785
7850
7851
7852
7855
7857
7862
7867
7869
7871
7874
7879
788
7881
7884
78986
78987
78990
78992
78994
790
79002
79003
79004
79005
79008
79009
79012
79016
79019
79020
79023
79025
79026
79027
7903
79031
79033
79034
79035
79036
79039
79042
79047
79048
7905
79050
79058
79065
79068
79073
79075
79077
79080
79083
79084
79085
79088
79090
79092
79094
79095
79096
79098
79101
79102
79109
7913
79132
79137
79139
79142
7915
79152
79155
79156
79158
79159
7916
79165
79169
7917
79171
79172
79173
79174
7918
79183
79184
79187
79188
7919
7920
7922
79230
79269
79295
793
7936
79363
79364
79365
79369
79370
794
7940
7941
79415
7942
79441
79443
79444
79446
79447
79465
79568
7957
79571
79573
79574
79576
79577
79582
79586
79589
79590
79594
79595
79596
79598
796
79602
79607
79612
79613
79622
79623
79633
79637
79640
79641
79643
79648
7965
79650
79654
79656
79657
79658
79659
79660
79661
79663
79665
79666
79672
79673
79674
79676
79677
79679
79682
79684
79685
79690
79693
79695
79696
79697
79699
79705
79706
79709
79710
79711
79718
79719
79720
79722
79723
79724
79726
79727
79728
79733
79734
79735
79736
79745
7975
79750
79751
79753
79754
7976
79760
79763
79768
79770
79778
7978
79784
7979
79792
79796
79797
7980
79800
79801
79803
79809
79812
79813
79817
79818
7982
79830
79831
79833
79834
79836
79837
7984
79840
79842
79843
79845
79849
79850
79853
79856
79858
79864
79865
79866
79868
79869
79870
79871
79872
79873
79876
79879
7988
79882
79885
79886
79890
79892
79893
79896
79897
799
79902
7991
79912
79913
79915
79921
79923
7993
79930
79931
79937
79939
7994
79947
79948
79953
79959
79960
79977
79980
79982
79983
79987
79991
79998
800
80005
80007
80010
80011
80012
80013
80019
80021
80023
80028
80031
80032
80055
80063
80097
801
80108
80117
80124
80125
80128
8013
80142
80143
80145
80146
80149
80152
80153
80155
80169
80174
80176
80178
80184
8019
80196
80198
80199
80204
80205
80208
8021
80212
80218
8022
80223
80227
80228
80230
80232
80233
80237
80243
80254
80256
80258
80262
80267
8027
80273
80274
80279
8028
8029
8030
80301
80303
80304
80306
80308
80309
8031
80310
80311
80314
80317
80318
80319
80321
80325
80328
80329
80331
80332
80333
80335
80342
80344
80345
80347
80349
80351
8036
8038
80381
8045
8048
8050
8061
8065
80700
80705
80709
80723
80725
80726
80727
8073
80739
8074
80746
8076
80761
80762
80764
8078
80781
80790
80817
80818
8082
80823
80824
80829
80830
80831
8085
80851
80852
80854
80856
8087
8089
80895
8091
8092
8099
81
810
8100
81027
81029
81030
81035
8106
811
8115
8120
8125
8128
813
8139
814
8140
8148
81488
81491
81493
81494
815
81502
8153
81532
81542
81543
81545
81551
81552
81554
81555
81557
81559
81565
81566
81567
81570
81572
81576
816
81603
81605
81607
81608
81609
8161
81610
81611
81617
81618
81620
81624
81628
81629
81631
8165
81669
81688
81693
817
81704
8174
8175
8178
81786
81788
81790
81793
818
81839
81844
81846
81847
81848
81857
81858
8187
81873
81875
81876
81887
81888
81889
8189
81890
81892
819
8190
8192
81926
81928
81929
8193
81930
81932
8195
820
8200
8202
8204
8208
8209
821
8216
8218
822
8220
8224
8227
823
8233
8237
8239
824
8241
8242
8243
825
826
8260
8263
8266
827
8284
8287
8288
8289
829
8290
8291
8292
8293
8294
8295
830
8301
8302
831
8310
8312
8313
8314
8315
8317
8318
832
8321
8322
8323
8324
8325
8326
8328
8329
833
8331
8334
8337
8338
8339
83394
834
8340
8341
83439
83440
83442
83443
83444
83452
83461
83463
83464
83475
83478
8348
83481
8349
835
8350
83539
83540
83541
83547
83548
83552
83591
83593
83595
83596
836
83605
83637
83638
83640
83641
83658
83660
83666
83667
83696
837
83700
83706
83707
83714
83715
83729
83732
83734
83737
83740
83744
83746
83752
83755
83759
8379
838
8382
83844
83851
83853
83855
83858
83860
83862
83871
83874
83878
83892
83897
839
8390
83903
83931
83932
83933
83937
83939
8394
83941
83942
8395
8396
83983
83985
83988
83989
8399
83990
83992
83999
840
8402
84033
84034
8404
8405
84056
8406
84060
84062
84064
84065
84067
8407
84073
84076
84078
84079
8408
84080
84085
8409
841
84100
84101
84103
84105
84106
84107
84108
8411
8412
84125
84126
84128
84129
84131
84132
84133
84140
84141
84142
84146
84148
84152
84154
84159
8416
84162
84164
84166
84168
8417
84171
84172
84174
84181
84186
84188
8419
84191
84193
84196
84197
842
84206
84218
84219
84220
84221
84223
84224
84231
84232
84239
8424
84245
84246
84248
8425
84251
84254
84256
84258
84260
84261
8427
84270
84271
84272
84273
84277
84279
8428
84280
84281
84282
84284
84285
84287
84289
84290
84292
84296
84298
843
84303
84305
84306
84307
8431
84310
84312
84313
84315
84319
84321
84324
8433
84330
84331
84332
84333
84335
84337
8434
84340
84342
84343
8436
84365
8437
84376
8438
8439
844
8440
8443
84433
8444
84440
84441
84444
84445
84446
84447
84448
8445
84451
84456
84457
84458
8446
84461
84464
84465
84466
8447
8448
8449
84498
845
8450
8451
84515
84516
8452
84525
84527
84528
84529
8453
84539
8454
84545
8455
84552
84557
84570
84572
8458
8459
846
8460
84612
84614
84619
8462
84622
84623
84626
84628
8463
84630
84632
84634
84639
8464
84640
84641
84643
84650
84651
84654
84661
84662
84665
84669
8467
84674
84675
84676
84678
84679
8468
84680
84684
84687
84688
84695
84699
847
8470
84700
84701
84705
84706
84707
84708
84709
8471
84720
84725
84726
8473
84733
84735
84749
84752
84759
8476
84766
84767
84775
84779
84787
8479
84790
8480
8481
84811
84812
84816
84817
8482
84823
84833
84838
84839
84844
84859
84861
84864
84867
8487
84872
84875
84876
84878
84888
84893
84894
84896
84897
8490
84901
84904
84905
84908
8491
84911
84914
84916
84919
84920
84922
84924
84926
8493
84930
84932
84937
84941
84946
8495
84950
84951
84952
84953
84954
84955
84957
84958
84959
8496
84960
84962
84966
84967
84968
84969
8497
84970
84978
8498
84984
84986
84988
8499
84991
84992
84993
8500
85012
85015
85019
8502
85021
85027
8503
8504
8505
8506
8507
8508
8509
851111
8513
8514
851492
8515
8516
8517
8518
8519
8520
8521
8522
85236
8525
852684
852688
8527
8528
8529
8530
85300
85302
8531
85313
8533
8534
8535
85359
8536
85363
85365
85366
85369
8537
85377
85378
8538
8539
8540
85403
85406
85407
85409
8541
85415
85417
8542
8543
85439
8544
85440
85441
85444
85445
8545
85450
85451
85456
85457
85458
85459
8546
85461
854622
85464
85465
854695
8547
85476
85477
8548
85480
8550
85509
8553
8554
8555
8556
855675
8557
8558
8559
8560
8562
8563
856448
8565
8567
8568
8569
857
8570
8572
8573
8574
8575
8576
8577
8578
858
8581
85865
859
86
860
8600
8601
8603
8604
8607
8609
861
8611
8612
8613
8614
8615
8618
862
8620
8621
8623
8625
8626
863
8631
8633
8634
8636
8637
8638
8639
864
8643
8644
8646
8647
8648
8649
865
8650
8651
8653
8654
8655
8658
8660
8661
8662
8663
8664
8665
8666
8667
8668
8669
867
8671
8672
8673
8674
8675
8676
8678
868
8681
8682
8683
8685
8689
869
8692
8693
8697
8698
87
8703
8705
871
8711
8712
8714
8715
8717
8718
8720
8721
8722
8723
8724
8725
8726
8727
8728
8729
873
8731
8732
8733
8735
8736
8737
8738
8739
874
8740
8741
8742
8743
8744
8745
875
8751
8754
8761
8763
8764
8766
8767
8771
8772
8773
8774
8775
8777
8778
8784
8785
8786
8787
8788
8789
8792
8793
8794
8795
8796
8797
8799
88
8800
8801
8802
8803
8804
8805
8807
8808
8809
881
8811
8812
8813
8814
8815
8817
8818
8819
8820
8822
8825
8826
8828
8829
8831
8832
8833
8834
8835
8837
8839
8840
8841
8842
8844
88455
8848
885
8850
8851
8852
8853
8854
8856
8857
8858
8859
886
8861
8862
8863
8864
8867
887
8870
8871
8872
8874
8875
8877
8878
8880
8881
8882
8883
8886
8887
8888
889
8890
8891
8892
8893
8894
8895
8897
8898
8899
89
890
8900
8904
8905
8906
8907
8908
891
8910
8911
8912
8913
8914
8915
8916
892
8924
8925
8926
8927
8928
8930
8932
8933
8934
8935
8936
8938
8939
894
8940
8941
8943
8945
896
8970
8971
8972
8974
8975
8976
89777
89780
89781
89790
89795
89796
89797
898
8985
89858
8986
89866
8987
89870
89876
8988
89882
89884
89885
89890
89891
899
8991
8992
89927
8994
89941
8995
89953
89958
8996
8997
89970
8999
9
90
900
90007
9001
90019
9002
90060
90070
901
90102
90113
90121
9013
90134
9014
9015
9019
902
9020
90204
9021
9022
90226
9024
90249
9025
9026
90268
9027
90293
9031
90321
90324
90326
9033
90355
90362
90379
9039
90390
904
9040
90410
90411
90417
90427
9043
9044
90441
9045
90459
9046
9047
9048
90480
9049
905
9050
9051
9052
90525
9053
9054
9055
9056
9057
90594
9061
90627
9063
9064
90655
9066
90678
9068
9069
9070
9073
9074
9075
9076
90780
9079
90799
908
9082
9083
90843
9085
90850
9086
90861
90865
9087
90871
9088
909
9091
9092
9093
90933
9094
9095
9097
9098
90987
9099
90990
90993
91
910
9100
9101
91010
9104
91050
91056
9107
9108
911
9110
91107
9111
9112
9113
9114
91147
91179
9118
912
9123
9124
9125
9126
9127
9128
9129
913
9130
91304
9131
91319
9132
9133
9134
9135
9136
9138
9139
91392
914
9140
91404
9141
91419
91442
91445
9146
9148
9149
915
9150
9152
91522
91526
91544
9156
91574
9158
91582
9159
916
91612
91614
9162
91624
91647
91653
9166
91662
9167
9168
9169
91694
917
9170
9172
9173
91746
91748
9175
91750
91752
91754
91768
91782
9179
9180
9181
9182
9183
91833
9184
9185
91851
9187
9188
9189
91894
919
9191
91942
91949
91966
91977
92
920
9201
9202
9203
9204
9205
9208
92086
9209
921
9210
92104
92105
9211
9212
9214
92140
9217
92170
9218
9219
922
9220
9221
9223
9227
9228
92283
92285
9229
923
9230
92304
9231
9232
92335
92342
92344
92345
9235
92359
9238
924
9240
9241
9242
92421
9244
9246
9248
92482
92483
925
9252
92521
9253
9255
9256
92565
92591
92595
92597
926
9260
92609
9261
92610
9262
9265
9266
92667
9267
92689
9270
9271
92714
92737
92747
9275
9276
9278
92797
92799
928
92806
92815
9282
92822
9283
9284
92840
92856
929
92906
92912
9294
9295
9296
92979
93
930
9306
931
93107
9311
9312
9314
93145
9315
9318
93183
93185
9319
932
9320
9321
9322
9324
9325
9326
9328
9329
933
9330
9332
93323
93343
9337
9338
9340
9341
9342
9343
9344
93474
93487
9349
9351
9352
9353
9354
9355
9356
93589
9360
9361
93611
9362
93621
93624
9363
93643
93649
9365
93661
93663
93664
9367
9368
9369
9370
9371
9372
9373
9375
9377
9378
9379
9380
9381
9382
9388
939
9391
9392
9397
93973
93974
9398
93986
9399
94
940
9400
94005
9401
94015
9402
94025
9403
94032
94039
9404
9406
94086
9409
941
9410
94103
94104
9411
9412
94120
94121
94122
9413
94137
9414
9416
94160
9419
942
9421
9423
94233
94235
94241
9425
94274
9429
943
9436
9437
9439
944
9440
9441
9442
9443
9444
9445
9446
9448
945
9450
9451
9454
9455
9456
9457
9459
946
9462
9463
9464
9465
9466
9467
9468
947
9470
9472
9474
9475
9476
9477
9478
9479
948
9481
9482
9489
949
9491
9493
9495
9496
9497
9498
9499
95
950
9500
9501
9502
9503
9507
9509
9510
9512
9513
9514
9516
9517
9518
9519
952
9520
9521
9522
9524
9525
9526
9527
9529
953
9530
9531
9532
9533
9535
9536
9538
954
9540
9541
9542
9543
9545
9546
955
9550
9551
9552
9554
9555
9557
9559
9562
9564
9567
9568
9569
957
9570
9572
9575
9576
9577
9578
958
9580
9581
9584
9585
9586
9587
9588
9589
959
9590
9595
960
9600
9601
9603
9604
9605
961
9610
9611
9612
9615
9616
9618
9619
962
9620
9622
9623
9625
9627
9628
963
9630
9631
9632
9635
9636
9637
9638
9639
9640
9641
9643
9644
96459
9646
9647
9648
9649
965
9650
9652
9655
9656
9657
9659
966
9662
9665
9666
9667
9669
967
9670
9672
96764
9678
9682
9683
9684
9685
9686
9688
9689
9690
9692
9693
9694
9695
9696
9697
9698
9699
970
9700
9701
9702
9703
9704
9706
9709
971
9711
9712
9716
972
9721
9722
9723
9725
9726
9727
9728
9729
973
9730
9731
9732
9733
9734
9735
9736
9737
9738
9739
974
9741
9742
9743
9744
9745
9746
9747
9748
9749
975
9750
9751
9752
9755
9757
9758
9759
976
9764
9765
9768
977
9770
9771
9774
9775
9777
9778
9779
978
9781
9782
9784
9785
9787
9788
9789
9790
9792
9793
9794
9796
9798
9801
9802
9804
9805
9806
9807
9810
9814
9815
9816
9817
9818
9820
9821
9823
9825
9826
9829
983
9830
9832
9833
9839
984
9841
9842
9844
9846
9849
9852
9853
9854
9855
9856
9857
9858
9859
9861
9862
9863
9867
9868
9869
987
9871
9873
9874
9875
9877
9878
9879
988
9882
9883
9884
9887
989
9890
9891
9892
9894
9896
9897
9898
9899
990
9900
9901
9902
9904
9905
9907
9908
991
9911
9912
9913
9914
9915
9918
9919
9921
9923
9924
9925
9927
9928
9929
993
9933
9935
9937
9939
994
9943
9947
9948
995
9950
9958
996
9960
9961
9963
9965
9966
9967
9968
9969
997
9970
9971
9972
9973
9975
9978
998
9982
9984
9985
9987
9988
9989
999
9990
9991
9992
9993
9994
